…
      <object>
      attr(,"S7_class")
      <ale::ALE> class
      @ parent     : <S7_object>
      @ constructor: function(model, x_cols, data, y_col, ..., exclude_cols, parallel, model_packages, output_stats, output_conf, output_boot_data, pred_fun, pred_type, p_values, p_aler, max_num_bins, boot_it, boot_alpha, boot_centre, seed, y_type, sample_size, .bins, silent) {...}
      @ validator  : <NULL>
      @ properties :
       $ effect: <list>
       $ params: <list>
      attr(,"effect")
      attr(,"effect")$vs
      attr(,"effect")$vs$ale
      attr(,"effect")$vs$ale$d1
      attr(,"effect")$vs$ale$d1$model
      # A tibble: 32 x 7
         model.bin              .n    .y  .y_lo .y_mean .y_median .y_hi
         <ord>               <int> <dbl>  <dbl>   <dbl>     <dbl> <dbl>
       1 Duster 360              2 0.198 0.0313   0.198    0.0313 0.506
       2 Camaro Z28              2 0.698 0.0563   0.698    0.531  1.48 
       3 Chrysler Imperial       2 1.03  0.0563   1.03     0.531  2.43 
       4 Cadillac Fleetwood      2 1.03  0.0563   1.03     0.531  2.43 
       5 Lincoln Continental     2 1.36  0.0813   1.36     1.03   2.93 
       6 Pontiac Firebird        2 1.36  0.0813   1.36     1.03   2.93 
       7 Hornet Sportabout       2 1.36  0.106    1.36     1.53   2.48 
       8 AMC Javelin             2 1.53  0.131    1.53     2.03   2.51 
       9 Dodge Challenger        2 1.53  0.106    1.53     1.53   2.96 
      10 Valiant                 2 2.20  1.06     2.20     1.53   3.91 
      # i 22 more rows
…
      attr(,"effect")$vs$ale$d1$continent
      # A tibble: 3 x 7
        continent.bin    .n         .y      .y_lo    .y_mean  .y_median      .y_hi
        <ord>         <int>      <dbl>      <dbl>      <dbl>      <dbl>      <dbl>
      1 North America    24  0.0000165 -0.0000148  0.0000165  0.0000165  0.0000478
      2 Europe           28 -0.0000212 -0.0000713 -0.0000212 -0.0000400  0.0000450
      3 Asia             12 -0.000131  -0.000209  -0.000131  -0.000106  -0.0000746
      
      
      attr(,"effect")$vs$ale$d2
      attr(,"effect")$vs$ale$d2$`model:mpg`
      # A tibble: 320 x 8
         model.bin           mpg.ceil    .n    .y .y_lo .y_mean .y_median .y_hi
         <ord>                  <dbl> <int> <dbl> <dbl>   <dbl>     <dbl> <dbl>
       1 Duster 360              10.4     0     0     0       0         0     0
       2 Camaro Z28              10.4     0     0     0       0         0     0
       3 Chrysler Imperial       10.4     0     0     0       0         0     0
       4 Cadillac Fleetwood      10.4     1     0     0       0         0     0
       5 Lincoln Continental     10.4     0     0     0       0         0     0
       6 Pontiac Firebird        10.4     0     0     0       0         0     0
       7 Hornet Sportabout       10.4     0     0     0       0         0     0
       8 AMC Javelin             10.4     0     0     0       0         0     0
       9 Dodge Challenger        10.4     0     0     0       0         0     0
      10 Valiant                 10.4     0     0     0       0         0     0
      # i 310 more rows
      
      attr(,"effect")$vs$ale$d2$`model:cyl`
      # A tibble: 224 x 8
         model.bin    cyl.ceil    .n        .y     .y_lo   .y_mean .y_median     .y_hi
         <ord>           <dbl> <int>     <dbl>     <dbl>     <dbl>     <dbl>     <dbl>
       1 Duster 360          3     0 -7.10e-11 -7.10e-11 -7.10e-11 -7.10e-11 -7.10e-11
       2 Camaro Z28          3     0 -7.10e-11 -7.10e-11 -7.10e-11 -7.10e-11 -7.10e-11
       3 Chrysler Im~        3     0 -7.10e-11 -7.10e-11 -7.10e-11 -7.10e-11 -7.10e-11
       4 Cadillac Fl~        3     0 -7.10e-11 -7.10e-11 -7.10e-11 -7.10e-11 -7.10e-11
       5 Lincoln Con~        3     0 -7.10e-11 -7.10e-11 -7.10e-11 -7.10e-11 -7.10e-11
       6 Pontiac Fir~        3     0 -7.10e-11 -7.10e-11 -7.10e-11 -7.10e-11 -7.10e-11
       7 Hornet Spor~        3     0 -7.10e-11 -7.10e-11 -7.10e-11 -7.10e-11 -7.10e-11
       8 AMC Javelin         3     0 -7.10e-11 -7.10e-11 -7.10e-11 -7.10e-11 -7.10e-11
       9 Dodge Chall~        3     0 -7.10e-11 -7.10e-11 -7.10e-11 -7.10e-11 -7.10e-11
      10 Valiant             3     0 -7.10e-11 -7.10e-11 -7.10e-11 -7.10e-11 -7.10e-11
      # i 214 more rows
      
      attr(,"effect")$vs$ale$d2$`model:disp`
      # A tibble: 320 x 8
         model.bin       disp.ceil    .n       .y    .y_lo  .y_mean .y_median    .y_hi
         <ord>               <dbl> <int>    <dbl>    <dbl>    <dbl>     <dbl>    <dbl>
       1 Duster 360           70.9     0 3.38e-10 3.38e-10 3.38e-10  3.38e-10 3.38e-10
       2 Camaro Z28           70.9     0 3.38e-10 3.38e-10 3.38e-10  3.38e-10 3.38e-10
       3 Chrysler Imper~      70.9     0 3.38e-10 3.38e-10 3.38e-10  3.38e-10 3.38e-10
       4 Cadillac Fleet~      70.9     0 3.38e-10 3.38e-10 3.38e-10  3.38e-10 3.38e-10
       5 Lincoln Contin~      70.9     0 3.38e-10 3.38e-10 3.38e-10  3.38e-10 3.38e-10
       6 Pontiac Firebi~      70.9     0 3.38e-10 3.38e-10 3.38e-10  3.38e-10 3.38e-10
       7 Hornet Sportab~      70.9     0 3.38e-10 3.38e-10 3.38e-10  3.38e-10 3.38e-10
       8 AMC Javelin          70.9     0 3.38e-10 3.38e-10 3.38e-10  3.38e-10 3.38e-10
       9 Dodge Challeng~      70.9     0 3.38e-10 3.38e-10 3.38e-10  3.38e-10 3.38e-10
      10 Valiant              70.9     0 3.38e-10 3.38e-10 3.38e-10  3.38e-10 3.38e-10
      # i 310 more rows
      
      attr(,"effect")$vs$ale$d2$`model:hp`
      # A tibble: 320 x 8
         model.bin           hp.ceil    .n        .y   .y_lo .y_mean .y_median   .y_hi
         <ord>                 <dbl> <int>     <dbl>   <dbl>   <dbl>     <dbl>   <dbl>
       1 Duster 360               52     0   8.62e-9 8.62e-9 8.62e-9   8.62e-9 8.62e-9
       2 Camaro Z28               52     0   8.62e-9 8.62e-9 8.62e-9   8.62e-9 8.62e-9
       3 Chrysler Imperial        52     0   8.62e-9 8.62e-9 8.62e-9   8.62e-9 8.62e-9
       4 Cadillac Fleetwood       52     0   8.62e-9 8.62e-9 8.62e-9   8.62e-9 8.62e-9
       5 Lincoln Continental      52     0   8.62e-9 8.62e-9 8.62e-9   8.62e-9 8.62e-9
       6 Pontiac Firebird         52     0   8.62e-9 8.62e-9 8.62e-9   8.62e-9 8.62e-9
       7 Hornet Sportabout        52     0   8.62e-9 8.62e-9 8.62e-9   8.62e-9 8.62e-9
       8 AMC Javelin              52     0   8.62e-9 8.62e-9 8.62e-9   8.62e-9 8.62e-9
       9 Dodge Challenger         52     0   8.62e-9 8.62e-9 8.62e-9   8.62e-9 8.62e-9
      10 Valiant                  52     0   8.62e-9 8.62e-9 8.62e-9   8.62e-9 8.62e-9
      # i 310 more rows
      
      attr(,"effect")$vs$ale$d2$`model:drat`
      # A tibble: 320 x 8
         model.bin       drat.ceil    .n       .y    .y_lo  .y_mean .y_median    .y_hi
         <ord>               <dbl> <int>    <dbl>    <dbl>    <dbl>     <dbl>    <dbl>
       1 Duster 360           2.74     0 -2.11e-9 -2.11e-9 -2.11e-9  -2.11e-9 -2.11e-9
       2 Camaro Z28           2.74     0 -2.11e-9 -2.11e-9 -2.11e-9  -2.11e-9 -2.11e-9
       3 Chrysler Imper~      2.74     0 -2.11e-9 -2.11e-9 -2.11e-9  -2.11e-9 -2.11e-9
       4 Cadillac Fleet~      2.74     0 -2.11e-9 -2.11e-9 -2.11e-9  -2.11e-9 -2.11e-9
       5 Lincoln Contin~      2.74     0 -2.11e-9 -2.11e-9 -2.11e-9  -2.11e-9 -2.11e-9
       6 Pontiac Firebi~      2.74     0 -2.11e-9 -2.11e-9 -2.11e-9  -2.11e-9 -2.11e-9
       7 Hornet Sportab~      2.74     0 -2.11e-9 -2.11e-9 -2.11e-9  -2.11e-9 -2.11e-9
       8 AMC Javelin          2.74     0 -2.11e-9 -2.11e-9 -2.11e-9  -2.11e-9 -2.11e-9
       9 Dodge Challeng~      2.74     0 -2.11e-9 -2.11e-9 -2.11e-9  -2.11e-9 -2.11e-9
      10 Valiant              2.74     1 -2.11e-9 -2.11e-9 -2.11e-9  -2.11e-9 -2.11e-9
      # i 310 more rows
      
      attr(,"effect")$vs$ale$d2$`model:wt`
      # A tibble: 320 x 8
         model.bin         wt.ceil    .n       .y    .y_lo  .y_mean .y_median    .y_hi
         <ord>               <dbl> <int>    <dbl>    <dbl>    <dbl>     <dbl>    <dbl>
       1 Duster 360           1.50     0 -4.77e-8 -4.77e-8 -4.77e-8  -4.77e-8 -4.77e-8
       2 Camaro Z28           1.50     0 -4.77e-8 -4.77e-8 -4.77e-8  -4.77e-8 -4.77e-8
       3 Chrysler Imperial    1.50     0 -4.77e-8 -4.77e-8 -4.77e-8  -4.77e-8 -4.77e-8
       4 Cadillac Fleetwo~    1.50     0 -4.77e-8 -4.77e-8 -4.77e-8  -4.77e-8 -4.77e-8
       5 Lincoln Continen~    1.50     0 -4.77e-8 -4.77e-8 -4.77e-8  -4.77e-8 -4.77e-8
       6 Pontiac Firebird     1.50     0 -4.77e-8 -4.77e-8 -4.77e-8  -4.77e-8 -4.77e-8
       7 Hornet Sportabout    1.50     0 -4.77e-8 -4.77e-8 -4.77e-8  -4.77e-8 -4.77e-8
       8 AMC Javelin          1.50     0 -4.77e-8 -4.77e-8 -4.77e-8  -4.77e-8 -4.77e-8
       9 Dodge Challenger     1.50     0 -4.77e-8 -4.77e-8 -4.77e-8  -4.77e-8 -4.77e-8
      10 Valiant              1.50     0 -4.77e-8 -4.77e-8 -4.77e-8  -4.77e-8 -4.77e-8
      # i 310 more rows
      
      attr(,"effect")$vs$ale$d2$`model:qsec`
      # A tibble: 320 x 8
         model.bin           qsec.ceil    .n      .y   .y_lo .y_mean .y_median   .y_hi
         <ord>                   <dbl> <int>   <dbl>   <dbl>   <dbl>     <dbl>   <dbl>
       1 Duster 360               14.5     0 3.48e-9 3.48e-9 3.48e-9   3.48e-9 3.48e-9
       2 Camaro Z28               14.5     0 3.48e-9 3.48e-9 3.48e-9   3.48e-9 3.48e-9
       3 Chrysler Imperial        14.5     0 3.48e-9 3.48e-9 3.48e-9   3.48e-9 3.48e-9
       4 Cadillac Fleetwood       14.5     0 3.48e-9 3.48e-9 3.48e-9   3.48e-9 3.48e-9
       5 Lincoln Continental      14.5     0 3.48e-9 3.48e-9 3.48e-9   3.48e-9 3.48e-9
       6 Pontiac Firebird         14.5     0 3.48e-9 3.48e-9 3.48e-9   3.48e-9 3.48e-9
       7 Hornet Sportabout        14.5     0 3.48e-9 3.48e-9 3.48e-9   3.48e-9 3.48e-9
       8 AMC Javelin              14.5     0 3.48e-9 3.48e-9 3.48e-9   3.48e-9 3.48e-9
       9 Dodge Challenger         14.5     0 3.48e-9 3.48e-9 3.48e-9   3.48e-9 3.48e-9
      10 Valiant                  14.5     0 3.48e-9 3.48e-9 3.48e-9   3.48e-9 3.48e-9
      # i 310 more rows
      
      attr(,"effect")$vs$ale$d2$`model:am`
      # A tibble: 64 x 8
         model.bin           am.bin    .n      .y  .y_lo .y_mean .y_median  .y_hi
         <ord>               <ord>  <int>   <dbl>  <dbl>   <dbl>     <dbl>  <dbl>
       1 Duster 360          FALSE      2 -0.562  -0.562 -0.562    -0.562  -0.562
       2 Camaro Z28          FALSE      2 -0.0624 -0.537 -0.0624   -0.0624  0.412
       3 Chrysler Imperial   FALSE      2  0.104  -0.537  0.104    -0.0624  0.887
       4 Cadillac Fleetwood  FALSE      2  0.104  -0.537  0.104    -0.0624  0.887
       5 Lincoln Continental FALSE      2  0.104  -0.537  0.104    -0.0624  0.887
       6 Pontiac Firebird    FALSE      2  0.104  -0.537  0.104    -0.0624  0.887
       7 Hornet Sportabout   FALSE      2 -0.0624 -0.537 -0.0624   -0.0624  0.412
       8 AMC Javelin         FALSE      2 -0.0624 -0.537 -0.0624   -0.0624  0.412
       9 Dodge Challenger    FALSE      2 -0.229  -0.562 -0.229    -0.562   0.387
      10 Valiant             FALSE      2 -0.0624 -0.562 -0.0624   -0.562   0.862
      # i 54 more rows
      
      attr(,"effect")$vs$ale$d2$`model:gear`
      # A tibble: 96 x 8
         model.bin           gear.bin    .n    .y .y_lo .y_mean .y_median .y_hi
         <ord>               <ord>    <int> <dbl> <dbl>   <dbl>     <dbl> <dbl>
       1 Duster 360          three        2 0.311 0.311   0.311     0.311 0.311
       2 Camaro Z28          three        2 0.811 0.336   0.811     0.811 1.29 
       3 Chrysler Imperial   three        2 0.978 0.336   0.978     0.811 1.76 
       4 Cadillac Fleetwood  three        2 0.978 0.336   0.978     0.811 1.76 
       5 Lincoln Continental three        2 0.978 0.336   0.978     0.811 1.76 
       6 Pontiac Firebird    three        2 0.978 0.336   0.978     0.811 1.76 
       7 Hornet Sportabout   three        2 0.811 0.336   0.811     0.811 1.29 
       8 AMC Javelin         three        2 0.811 0.336   0.811     0.811 1.29 
       9 Dodge Challenger    three        2 0.645 0.311   0.645     0.311 1.26 
      10 Valiant             three        2 0.811 0.311   0.811     0.311 1.74 
      # i 86 more rows
      
      attr(,"effect")$vs$ale$d2$`model:carb`
      # A tibble: 160 x 8
         model.bin       carb.ceil    .n       .y    .y_lo  .y_mean .y_median    .y_hi
         <ord>               <dbl> <int>    <dbl>    <dbl>    <dbl>     <dbl>    <dbl>
       1 Duster 360              1     0 5.66e-12 5.66e-12 5.66e-12  5.66e-12 5.66e-12
       2 Camaro Z28              1     0 5.66e-12 5.66e-12 5.66e-12  5.66e-12 5.66e-12
       3 Chrysler Imper~         1     0 5.66e-12 5.66e-12 5.66e-12  5.66e-12 5.66e-12
       4 Cadillac Fleet~         1     0 5.66e-12 5.66e-12 5.66e-12  5.66e-12 5.66e-12
       5 Lincoln Contin~         1     0 5.66e-12 5.66e-12 5.66e-12  5.66e-12 5.66e-12
       6 Pontiac Firebi~         1     0 5.66e-12 5.66e-12 5.66e-12  5.66e-12 5.66e-12
       7 Hornet Sportab~         1     0 5.66e-12 5.66e-12 5.66e-12  5.66e-12 5.66e-12
       8 AMC Javelin             1     0 5.66e-12 5.66e-12 5.66e-12  5.66e-12 5.66e-12
       9 Dodge Challeng~         1     0 5.66e-12 5.66e-12 5.66e-12  5.66e-12 5.66e-12
      10 Valiant                 1     2 5.66e-12 5.66e-12 5.66e-12  5.66e-12 5.66e-12
      # i 150 more rows
      
      attr(,"effect")$vs$ale$d2$`model:country`
      # A tibble: 192 x 8
         model.bin           country.bin    .n    .y .y_lo .y_mean .y_median .y_hi
         <ord>               <ord>       <int> <dbl> <dbl>   <dbl>     <dbl> <dbl>
       1 Duster 360          Sweden          0  1.30  1.30    1.30      1.30  1.30
       2 Camaro Z28          Sweden          0  1.30  1.30    1.30      1.30  1.30
       3 Chrysler Imperial   Sweden          0  1.30  1.30    1.30      1.30  1.30
       4 Cadillac Fleetwood  Sweden          0  1.30  1.30    1.30      1.30  1.30
       5 Lincoln Continental Sweden          0  1.30  1.30    1.30      1.30  1.30
       6 Pontiac Firebird    Sweden          0  1.30  1.30    1.30      1.30  1.30
       7 Hornet Sportabout   Sweden          0  1.30  1.30    1.30      1.30  1.30
       8 AMC Javelin         Sweden          0  1.30  1.30    1.30      1.30  1.30
       9 Dodge Challenger    Sweden          0  1.30  1.30    1.30      1.30  1.30
      10 Valiant             Sweden          0  1.30  1.30    1.30      1.30  1.30
      # i 182 more rows
      
      attr(,"effect")$vs$ale$d2$`model:continent`
      # A tibble: 96 x 8
         model.bin   continent.bin    .n       .y    .y_lo  .y_mean .y_median    .y_hi
         <ord>       <ord>         <int>    <dbl>    <dbl>    <dbl>     <dbl>    <dbl>
       1 Duster 360  North America     2 -6.18e-6 -6.18e-6 -6.18e-6  -6.18e-6 -6.18e-6
       2 Camaro Z28  North America     2  2.57e-4  1.36e-5  2.57e-4   3.89e-4  3.89e-4
       3 Chrysler I~ North America     2  3.89e-4  1.36e-5  3.89e-4   3.89e-4  7.65e-4
       4 Cadillac F~ North America     2  3.89e-4  1.36e-5  3.89e-4   3.89e-4  7.65e-4
       5 Lincoln Co~ North America     2  3.89e-4  1.36e-5  3.89e-4   3.89e-4  7.65e-4
       6 Pontiac Fi~ North America     2  3.89e-4  1.36e-5  3.89e-4   3.89e-4  7.65e-4
       7 Hornet Spo~ North America     2  3.89e-4  1.36e-5  3.89e-4   3.89e-4  7.65e-4
       8 AMC Javelin North America     2  3.89e-4  1.36e-5  3.89e-4   3.89e-4  7.65e-4
       9 Dodge Chal~ North America     2  3.89e-4  1.36e-5  3.89e-4   3.89e-4  7.65e-4
      10 Valiant     North America     2  5.21e-4  1.36e-5  5.21e-4   3.89e-4  1.14e-3
      # i 86 more rows
      
      attr(,"effect")$vs$ale$d2$`mpg:cyl`
      # A tibble: 70 x 8
         mpg.ceil cyl.ceil    .n    .y .y_lo .y_mean .y_median .y_hi
            <dbl>    <dbl> <int> <dbl> <dbl>   <dbl>     <dbl> <dbl>
       1     10.4        3     0     0     0       0         0     0
       2     14.4        3     0     0     0       0         0     0
       3     15.2        3     0     0     0       0         0     0
       4     16.4        3     0     0     0       0         0     0
       5     18.7        3     0     0     0       0         0     0
       6     19.8        3     0     0     0       0         0     0
       7     21.4        3     0     0     0       0         0     0
       8     22.9        3     0     0     0       0         0     0
       9     30.1        3     1     0     0       0         0     0
      10     33.9        3     0     0     0       0         0     0
      # i 60 more rows
      
      attr(,"effect")$vs$ale$d2$`mpg:disp`
      # A tibble: 100 x 8
         mpg.ceil disp.ceil    .n    .y .y_lo .y_mean .y_median .y_hi
            <dbl>     <dbl> <int> <dbl> <dbl>   <dbl>     <dbl> <dbl>
       1     10.4      70.9     0     0     0       0         0     0
       2     14.4      70.9     0     0     0       0         0     0
       3     15.2      70.9     0     0     0       0         0     0
       4     16.4      70.9     0     0     0       0         0     0
       5     18.7      70.9     0     0     0       0         0     0
       6     19.8      70.9     0     0     0       0         0     0
       7     21.4      70.9     0     0     0       0         0     0
       8     22.9      70.9     0     0     0       0         0     0
       9     30.1      70.9     0     0     0       0         0     0
      10     33.9      70.9     1     0     0       0         0     0
      # i 90 more rows
      
      attr(,"effect")$vs$ale$d2$`mpg:hp`
      # A tibble: 100 x 8
         mpg.ceil hp.ceil    .n    .y .y_lo .y_mean .y_median .y_hi
            <dbl>   <dbl> <int> <dbl> <dbl>   <dbl>     <dbl> <dbl>
       1     10.4      52     0     0     0       0         0     0
       2     14.4      52     0     0     0       0         0     0
       3     15.2      52     0     0     0       0         0     0
       4     16.4      52     0     0     0       0         0     0
       5     18.7      52     0     0     0       0         0     0
       6     19.8      52     0     0     0       0         0     0
       7     21.4      52     0     0     0       0         0     0
       8     22.9      52     0     0     0       0         0     0
       9     30.1      52     0     0     0       0         0     0
      10     33.9      52     1     0     0       0         0     0
      # i 90 more rows
      
      attr(,"effect")$vs$ale$d2$`mpg:drat`
      # A tibble: 100 x 8
         mpg.ceil drat.ceil    .n    .y .y_lo .y_mean .y_median .y_hi
            <dbl>     <dbl> <int> <dbl> <dbl>   <dbl>     <dbl> <dbl>
       1     10.4      2.74     0     0     0       0         0     0
       2     14.4      2.74     0     0     0       0         0     0
       3     15.2      2.74     0     0     0       0         0     0
       4     16.4      2.74     0     0     0       0         0     0
       5     18.7      2.74     1     0     0       0         0     0
       6     19.8      2.74     0     0     0       0         0     0
       7     21.4      2.74     0     0     0       0         0     0
       8     22.9      2.74     0     0     0       0         0     0
       9     30.1      2.74     0     0     0       0         0     0
      10     33.9      2.74     0     0     0       0         0     0
      # i 90 more rows
…
