…
      attr(,"composite")$Asia$ale$d1$am
      # A tibble: 2 x 7
        am.bin    .n       .y    .y_lo  .y_mean .y_median    .y_hi
        <ord>  <int>    <dbl>    <dbl>    <dbl>     <dbl>    <dbl>
      1 FALSE     38  0.0309   0.0298   0.0309    0.0309   0.0321 
      2 TRUE      26 -0.00838 -0.00998 -0.00838  -0.00838 -0.00678
      
      attr(,"composite")$Asia$ale$d1$model
      # A tibble: 32 x 7
         model.bin             .n     .y .y_lo .y_mean .y_median  .y_hi
         <ord>              <int>  <dbl> <dbl>   <dbl>     <dbl>  <dbl>
       1 AMC Javelin            2 -0.977 -1.17  -0.977    -0.977 -0.782
       2 Cadillac Fleetwood     2 -1.23  -1.66  -1.23     -1.23  -0.794
       3 Camaro Z28             2 -1.97  -2.17  -1.97     -1.97  -1.77 
       4 Chrysler Imperial      2 -2.47  -2.67  -2.47     -2.47  -2.27 
       5 Datsun 710             2 -2.40  -2.61  -2.40     -2.40  -2.19 
       6 Dodge Challenger       2 -2.56  -2.92  -2.56     -2.56  -2.20 
       7 Duster 360             2 -2.56  -2.92  -2.56     -2.56  -2.20 
       8 Ferrari Dino           2 -2.56  -2.91  -2.56     -2.56  -2.20 
       9 Fiat 128               2 -2.56  -2.91  -2.56     -2.56  -2.20 
      10 Fiat X1-9              2 -2.56  -2.91  -2.56     -2.56  -2.20 
      # i 22 more rows
…
      
      attr(,"composite")$Asia$ale$d2
      attr(,"composite")$Asia$ale$d2$`mpg:vs`
      # A tibble: 22 x 8
         mpg.ceil vs.bin    .n    .y .y_lo .y_mean .y_median .y_hi
            <dbl> <ord>  <int> <dbl> <dbl>   <dbl>     <dbl> <dbl>
       1     10.4 FALSE      1     0     0       0         0     0
       2     14.3 FALSE      6     0     0       0         0     0
       3     15.1 FALSE      6     0     0       0         0     0
       4     15.8 FALSE      7     0     0       0         0     0
       5     17.8 FALSE      4     0     0       0         0     0
       6     19.2 FALSE      4     0     0       0         0     0
       7     21   FALSE      5     0     0       0         0     0
       8     21.5 FALSE      1     0     0       0         0     0
       9     24.6 FALSE      0     0     0       0         0     0
      10     30.4 FALSE      2     0     0       0         0     0
      # i 12 more rows
      
      attr(,"composite")$Asia$ale$d2$`mpg:am`
      # A tibble: 22 x 8
         mpg.ceil am.bin    .n    .y .y_lo .y_mean .y_median .y_hi
            <dbl> <ord>  <int> <dbl> <dbl>   <dbl>     <dbl> <dbl>
       1     10.4 FALSE      1     0     0       0         0     0
       2     14.3 FALSE      6     0     0       0         0     0
       3     15.1 FALSE      4     0     0       0         0     0
       4     15.8 FALSE      5     0     0       0         0     0
       5     17.8 FALSE      6     0     0       0         0     0
       6     19.2 FALSE      7     0     0       0         0     0
       7     21   FALSE      1     0     0       0         0     0
       8     21.5 FALSE      3     0     0       0         0     0
       9     24.6 FALSE      5     0     0       0         0     0
      10     30.4 FALSE      0     0     0       0         0     0
      # i 12 more rows
      
      attr(,"composite")$Asia$ale$d2$`mpg:model`
      # A tibble: 352 x 8
         mpg.ceil model.bin      .n    .y .y_lo .y_mean .y_median .y_hi
            <dbl> <ord>       <int> <dbl> <dbl>   <dbl>     <dbl> <dbl>
       1     10.4 AMC Javelin     0     0     0       0         0     0
       2     14.3 AMC Javelin     0     0     0       0         0     0
       3     15.1 AMC Javelin     0     0     0       0         0     0
       4     15.8 AMC Javelin     0     0     0       0         0     0
       5     17.8 AMC Javelin     0     0     0       0         0     0
       6     19.2 AMC Javelin     0     0     0       0         0     0
       7     21   AMC Javelin     1     0     0       0         0     0
       8     21.5 AMC Javelin     1     0     0       0         0     0
       9     24.6 AMC Javelin     0     0     0       0         0     0
      10     30.4 AMC Javelin     0     0     0       0         0     0
      # i 342 more rows
      
      attr(,"composite")$Asia$ale$d2$`mpg:gear`
      # A tibble: 33 x 8
         mpg.ceil gear.bin    .n    .y .y_lo .y_mean .y_median .y_hi
            <dbl> <ord>    <int> <dbl> <dbl>   <dbl>     <dbl> <dbl>
       1     10.4 three        1     0     0       0         0     0
       2     14.3 three        6     0     0       0         0     0
       3     15.1 three        4     0     0       0         0     0
       4     15.8 three        5     0     0       0         0     0
       5     17.8 three        4     0     0       0         0     0
       6     19.2 three        6     0     0       0         0     0
       7     21   three        0     0     0       0         0     0
       8     21.5 three        3     0     0       0         0     0
       9     24.6 three        1     0     0       0         0     0
      10     30.4 three        0     0     0       0         0     0
      # i 23 more rows
      
      attr(,"composite")$Asia$ale$d2$`mpg:carb`
      # A tibble: 55 x 8
         mpg.ceil carb.ceil    .n    .y .y_lo .y_mean .y_median .y_hi
            <dbl>     <dbl> <int> <dbl> <dbl>   <dbl>     <dbl> <dbl>
       1     10.4         1     0     0     0       0         0     0
       2     14.3         1     0     0     0       0         0     0
       3     15.1         1     0     0     0       0         0     0
       4     15.8         1     0     0     0       0         0     0
       5     17.8         1     0     0     0       0         0     0
       6     19.2         1     2     0     0       0         0     0
       7     21           1     0     0     0       0         0     0
       8     21.5         1     3     0     0       0         0     0
       9     24.6         1     3     0     0       0         0     0
      10     30.4         1     2     0     0       0         0     0
      # i 45 more rows
      
      attr(,"composite")$Asia$ale$d2$`mpg:wt`
      # A tibble: 121 x 8
         mpg.ceil wt.ceil    .n    .y .y_lo .y_mean .y_median .y_hi
            <dbl>   <dbl> <int> <dbl> <dbl>   <dbl>     <dbl> <dbl>
       1     10.4    1.50     0     0     0       0         0     0
       2     14.3    1.50     0     0     0       0         0     0
       3     15.1    1.50     0     0     0       0         0     0
       4     15.8    1.50     0     0     0       0         0     0
       5     17.8    1.50     0     0     0       0         0     0
       6     19.2    1.50     0     0     0       0         0     0
       7     21      1.50     0     0     0       0         0     0
       8     21.5    1.50     0     0     0       0         0     0
       9     24.6    1.50     0     0     0       0         0     0
      10     30.4    1.50     1     0     0       0         0     0
      # i 111 more rows
      
      attr(,"composite")$Asia$ale$d2$`vs:am`
      # A tibble: 4 x 8
        vs.bin am.bin    .n    .y .y_lo .y_mean .y_median .y_hi
        <ord>  <ord>  <int> <dbl> <dbl>   <dbl>     <dbl> <dbl>
      1 FALSE  FALSE     24     0     0       0         0     0
      2 TRUE   FALSE     14     0     0       0         0     0
      3 FALSE  TRUE      12     0     0       0         0     0
      4 TRUE   TRUE      14     0     0       0         0     0
      
      attr(,"composite")$Asia$ale$d2$`vs:model`
      # A tibble: 64 x 8
         vs.bin model.bin             .n    .y .y_lo .y_mean .y_median .y_hi
         <ord>  <ord>              <int> <dbl> <dbl>   <dbl>     <dbl> <dbl>
       1 FALSE  AMC Javelin            2     0     0       0         0     0
       2 TRUE   AMC Javelin            0     0     0       0         0     0
       3 FALSE  Cadillac Fleetwood     2     0     0       0         0     0
       4 TRUE   Cadillac Fleetwood     0     0     0       0         0     0
       5 FALSE  Camaro Z28             0     0     0       0         0     0
       6 TRUE   Camaro Z28             2     0     0       0         0     0
       7 FALSE  Chrysler Imperial      0     0     0       0         0     0
       8 TRUE   Chrysler Imperial      2     0     0       0         0     0
       9 FALSE  Datsun 710             2     0     0       0         0     0
      10 TRUE   Datsun 710             0     0     0       0         0     0
      # i 54 more rows
…
      attr(,"composite")$Asia$ale$d2$`vs:wt`
      # A tibble: 22 x 8
         vs.bin wt.ceil    .n    .y .y_lo .y_mean .y_median .y_hi
         <ord>    <dbl> <int> <dbl> <dbl>   <dbl>     <dbl> <dbl>
       1 FALSE     1.50     0     0     0       0         0     0
       2 TRUE      1.50     1     0     0       0         0     0
       3 FALSE     1.93     0     0     0       0         0     0
       4 TRUE      1.93     6     0     0       0         0     0
       5 FALSE     2.31     2     0     0       0         0     0
       6 TRUE      2.31     4     0     0       0         0     0
       7 FALSE     2.78     3     0     0       0         0     0
       8 TRUE      2.78     4     0     0       0         0     0
       9 FALSE     3.16     3     0     0       0         0     0
      10 TRUE      3.16     3     0     0       0         0     0
      # i 12 more rows
      
      attr(,"composite")$Asia$ale$d2$`am:model`
      # A tibble: 64 x 8
         am.bin model.bin             .n     .y  .y_lo .y_mean .y_median  .y_hi
         <ord>  <ord>              <int>  <dbl>  <dbl>   <dbl>     <dbl>  <dbl>
       1 FALSE  AMC Javelin            0  2.14   2.14    2.14      2.14   2.14 
       2 TRUE   AMC Javelin            2  1.60   1.57    1.60      1.60   1.64 
       3 FALSE  Cadillac Fleetwood     0  2.14   2.14    2.14      2.14   2.14 
       4 TRUE   Cadillac Fleetwood     2  1.39   1.22    1.39      1.39   1.56 
       5 FALSE  Camaro Z28             0  2.14   2.14    2.14      2.14   2.14 
       6 TRUE   Camaro Z28             2  0.795  0.715   0.795     0.795  0.875
       7 FALSE  Chrysler Imperial      2  1.64   1.64    1.64      1.64   1.64 
       8 TRUE   Chrysler Imperial      0 -0.276 -0.288  -0.276    -0.276 -0.263
       9 FALSE  Datsun 710             2  1.46   1.28    1.46      1.46   1.63 
      10 TRUE   Datsun 710             0 -1.01  -1.21   -1.01     -1.01  -0.800
      # i 54 more rows
…
      attr(,"composite")$Asia$ale$d2$`am:wt`
      # A tibble: 22 x 8
         am.bin wt.ceil    .n       .y    .y_lo  .y_mean .y_median    .y_hi
         <ord>    <dbl> <int>    <dbl>    <dbl>    <dbl>     <dbl>    <dbl>
       1 FALSE     1.50     0 -0.00669 -0.00669 -0.00669  -0.00669 -0.00669
       2 TRUE      1.50     1 -0.00669 -0.00669 -0.00669  -0.00669 -0.00669
       3 FALSE     1.93     0 -0.00669 -0.00669 -0.00669  -0.00669 -0.00669
       4 TRUE      1.93     6 -0.00672 -0.00673 -0.00672  -0.00672 -0.00671
       5 FALSE     2.31     0 -0.00670 -0.00670 -0.00670  -0.00670 -0.00670
       6 TRUE      2.31     6 -0.00673 -0.00674 -0.00673  -0.00673 -0.00672
       7 FALSE     2.78     2  0.0382   0.0339   0.0382    0.0382   0.0425 
       8 TRUE      2.78     5  0.0567   0.0348   0.0567    0.0567   0.0786 
       9 FALSE     3.16     2  0.0641   0.0352   0.0641    0.0641   0.0930 
      10 TRUE      3.16     4  0.122    0.112    0.122     0.122    0.131  
      # i 12 more rows
      
      attr(,"composite")$Asia$ale$d2$`model:gear`
      # A tibble: 96 x 8
         model.bin          gear.bin    .n    .y  .y_lo .y_mean .y_median .y_hi
         <ord>              <ord>    <int> <dbl>  <dbl>   <dbl>     <dbl> <dbl>
       1 AMC Javelin        three        0 0.989 0.989    0.989     0.989 0.989
       2 Cadillac Fleetwood three        0 0.989 0.989    0.989     0.989 0.989
       3 Camaro Z28         three        0 0.989 0.989    0.989     0.989 0.989
       4 Chrysler Imperial  three        2 0.489 0.489    0.489     0.489 0.489
       5 Datsun 710         three        2 0.284 0.0883   0.284     0.284 0.479
       6 Dodge Challenger   three        2 0.289 0.0983   0.289     0.289 0.479
       7 Duster 360         three        2 0.289 0.0983   0.289     0.289 0.479
       8 Ferrari Dino       three        0 0.289 0.0984   0.289     0.289 0.479
       9 Fiat 128           three        0 0.289 0.0986   0.289     0.289 0.479
      10 Fiat X1-9          three        0 0.289 0.0988   0.289     0.289 0.479
      # i 86 more rows
      
      attr(,"composite")$Asia$ale$d2$`model:carb`
      # A tibble: 160 x 8
         model.bin          carb.ceil    .n    .y .y_lo .y_mean .y_median .y_hi
         <ord>                  <dbl> <int> <dbl> <dbl>   <dbl>     <dbl> <dbl>
       1 AMC Javelin                1     0 -1.37 -1.37   -1.37     -1.37 -1.37
       2 Cadillac Fleetwood         1     0 -1.37 -1.37   -1.37     -1.37 -1.37
       3 Camaro Z28                 1     2 -1.37 -1.37   -1.37     -1.37 -1.37
       4 Chrysler Imperial          1     2 -1.37 -1.37   -1.37     -1.37 -1.37
       5 Datsun 710                 1     0 -1.37 -1.37   -1.37     -1.37 -1.37
       6 Dodge Challenger           1     2 -1.37 -1.37   -1.37     -1.37 -1.37
       7 Duster 360                 1     0 -1.37 -1.37   -1.37     -1.37 -1.37
       8 Ferrari Dino               1     0 -1.37 -1.37   -1.37     -1.37 -1.37
       9 Fiat 128                   1     0 -1.37 -1.37   -1.37     -1.37 -1.37
      10 Fiat X1-9                  1     0 -1.37 -1.37   -1.37     -1.37 -1.37
      # i 150 more rows
      
      attr(,"composite")$Asia$ale$d2$`model:wt`
      # A tibble: 352 x 8
         model.bin          wt.ceil    .n     .y  .y_lo .y_mean .y_median  .y_hi
         <ord>                <dbl> <int>  <dbl>  <dbl>   <dbl>     <dbl>  <dbl>
       1 AMC Javelin           1.50     0 -0.982 -0.982  -0.982    -0.982 -0.982
       2 Cadillac Fleetwood    1.50     0 -0.982 -0.982  -0.982    -0.982 -0.982
       3 Camaro Z28            1.50     0 -0.982 -0.982  -0.982    -0.982 -0.982
       4 Chrysler Imperial     1.50     0 -0.982 -0.982  -0.982    -0.982 -0.982
       5 Datsun 710            1.50     0 -0.982 -0.982  -0.982    -0.982 -0.982
       6 Dodge Challenger      1.50     0 -0.982 -0.982  -0.982    -0.982 -0.982
       7 Duster 360            1.50     0 -0.982 -0.982  -0.982    -0.982 -0.982
       8 Ferrari Dino          1.50     0 -0.982 -0.982  -0.982    -0.982 -0.982
       9 Fiat 128              1.50     0 -0.982 -0.982  -0.982    -0.982 -0.982
      10 Fiat X1-9             1.50     0 -0.982 -0.982  -0.982    -0.982 -0.982
      # i 342 more rows
…
      attr(,"composite")$Asia$ale$d2$`gear:wt`
      # A tibble: 33 x 8
         gear.bin wt.ceil    .n       .y    .y_lo  .y_mean .y_median   .y_hi
         <ord>      <dbl> <int>    <dbl>    <dbl>    <dbl>     <dbl>   <dbl>
       1 three       1.50     0 -0.0131  -0.0131  -0.0131   -0.0131  -0.0131
       2 four        1.50     0 -0.0131  -0.0131  -0.0131   -0.0131  -0.0131
       3 five        1.50     1 -0.0131  -0.0131  -0.0131   -0.0131  -0.0131
       4 three       1.93     0  0.00928 -0.0119   0.00928   0.00928  0.0305
       5 four        1.93     5  0.0139  -0.00922  0.0139    0.0139   0.0371
       6 five        1.93     1  0.0139  -0.00922  0.0139    0.0139   0.0371
       7 three       2.31     0  0.0129  -0.0118   0.0129    0.0129   0.0375
       8 four        2.31     4  0.0220  -0.00621  0.0220    0.0220   0.0503
       9 five        2.31     2  0.0248  -0.00607  0.0248    0.0248   0.0557
      10 three       2.78     2  0.0132  -0.0115   0.0132    0.0132   0.0378
      # i 23 more rows
      
      attr(,"composite")$Asia$ale$d2$`carb:wt`
      # A tibble: 55 x 8
         carb.ceil wt.ceil    .n       .y   .y_lo  .y_mean .y_median      .y_hi
             <dbl>   <dbl> <int>    <dbl>   <dbl>    <dbl>     <dbl>      <dbl>
       1         1    1.50     0 -0.0192  -0.0192 -0.0192   -0.0192  -0.0192   
       2         2    1.50     1 -0.0192  -0.0192 -0.0192   -0.0192  -0.0192   
       3         3    1.50     0 -0.0192  -0.0192 -0.0192   -0.0192  -0.0192   
       4         4    1.50     0 -0.0192  -0.0192 -0.0192   -0.0192  -0.0192   
       5         8    1.50     0 -0.0192  -0.0192 -0.0192   -0.0192  -0.0192   
       6         1    1.93     3 -0.0192  -0.0192 -0.0192   -0.0192  -0.0192   
       7         2    1.93     3 -0.00832 -0.0167 -0.00832  -0.00832  0.0000798
       8         3    1.93     0 -0.00832 -0.0167 -0.00832  -0.00832  0.0000798
       9         4    1.93     0 -0.00832 -0.0167 -0.00832  -0.00832  0.0000798
      10         8    1.93     0 -0.00832 -0.0167 -0.00832  -0.00832  0.0000798
      # i 45 more rows
      
      
      
      attr(,"composite")$Asia$stats
      # A tibble: 168 x 9
         statistic estimate p.value term  conf.low  mean median conf.high     d
         <chr>        <dbl>   <dbl> <chr>    <dbl> <dbl>  <dbl>     <dbl> <int>
       1 aled             0       1 mpg          0     0      0         0     1
       2 aler_min         0       1 mpg          0     0      0         0     1
       3 aler_max         0       1 mpg          0     0      0         0     1
       4 naled            0       0 mpg          0     0      0         0     1
       5 naler_min        0       1 mpg          0     0      0         0     1
       6 naler_max        0       0 mpg          0     0      0         0     1
       7 aled             0       1 vs           0     0      0         0     1
       8 aler_min         0       1 vs           0     0      0         0     1
       9 aler_max         0       1 vs           0     0      0         0     1
      10 naled            0       0 vs           0     0      0         0     1
      # i 158 more rows
      
      attr(,"composite")$Asia$boot_data
      attr(,"composite")$Asia$boot_data$d1
      attr(,"composite")$Asia$boot_data$d1$mpg
      # A tibble: 22 x 4
           .it   mpg    .y    .n
         <dbl> <dbl> <dbl> <dbl>
       1     1  10.4     0     3
       2     1  14.3     0     3
       3     1  15.1     0     5
       4     1  15.8     0     2
       5     1  17.8     0     9
       6     1  19.2     0     9
       7     1  21       0     1
       8     1  21.5     0     9
       9     1  24.6     0     6
      10     1  30.4     0    12
      # i 12 more rows
…
      attr(,"composite")$Asia$boot_data$d1$am
      # A tibble: 4 x 4
          .it am          .y    .n
        <dbl> <fct>    <dbl> <dbl>
      1     1 FALSE  0.0321     38
      2     1 TRUE  -0.0101     26
      3     2 FALSE  0.0297     38
      4     2 TRUE  -0.00670    26
      
      attr(,"composite")$Asia$boot_data$d1$model
      # A tibble: 64 x 4
           .it model                  .y    .n
         <dbl> <fct>               <dbl> <dbl>
       1     1 AMC Javelin        -0.772     2
       2     1 Cadillac Fleetwood -0.772     2
       3     1 Camaro Z28         -1.76      2
       4     1 Chrysler Imperial  -2.26      2
       5     1 Datsun 710         -2.62      2
       6     1 Dodge Challenger   -2.94      2
       7     1 Duster 360         -2.94      2
       8     1 Ferrari Dino       -2.93      2
       9     1 Fiat 128           -2.93      2
      10     1 Fiat X1-9          -2.93      2
      # i 54 more rows
…
      attr(,"composite")$Asia$boot_data$d1$wt
      # A tibble: 22 x 4
           .it    wt         .y    .n
         <dbl> <dbl>      <dbl> <dbl>
       1     1  1.50 0.0000259      1
       2     1  1.93 0.0000122      6
       3     1  2.31 0.00000542    11
       4     1  2.78 0.00000542    12
       5     1  3.16 0.00000541     3
       6     1  3.22 0.00000541     1
       7     1  3.44 0.00000541     4
       8     1  3.56 0.00000541     8
       9     1  3.79 0.00000541     5
      10     1  4.07 0.00000541     7
      # i 12 more rows
…
