…
      <object>
      attr(,"S7_class")
      <ale::ALE> class
      @ parent     : <S7_object>
      @ constructor: function(model, x_cols, data, y_col, ..., exclude_cols, parallel, model_packages, output_stats, output_conf, output_boot_data, pred_fun, pred_type, p_values, p_aler, max_num_bins, boot_it, boot_alpha, boot_centre, seed, y_type, sample_size, .bins, silent) {...}
      @ validator  : <NULL>
      @ properties :
       $ effect: <list>
       $ params: <list>
      attr(,"effect")
      attr(,"effect")$mpg
      attr(,"effect")$mpg$ale
      attr(,"effect")$mpg$ale$d1
      attr(,"effect")$mpg$ale$d1$model
      # A tibble: 32 x 7
         model.bin              .n      .y   .y_lo .y_mean .y_median  .y_hi
         <ord>               <int>   <dbl>   <dbl>   <dbl>     <dbl>  <dbl>
       1 Duster 360              2   2.54   -0.140   2.54       3.87  4.09 
       2 Camaro Z28              2  -0.225  -6.48   -0.225      2.18  3.98 
       3 Chrysler Imperial       2  -3.08  -14.3    -3.08      -2.81  7.93 
       4 Cadillac Fleetwood      2  -8.48  -19.9    -8.48      -8.00  2.56 
       5 Lincoln Continental     2 -11.5   -24.3   -11.5      -13.6   3.10 
       6 Pontiac Firebird        2 -12.1   -27.3   -12.1      -15.2   5.81 
       7 Hornet Sportabout       2 -17.9   -35.9   -17.9      -21.0   2.86 
       8 AMC Javelin             2 -23.1   -40.9   -23.1      -25.6  -3.16 
       9 Dodge Challenger        2 -22.4   -41.7   -22.4      -25.1  -0.812
      10 Merc 450SLC             2 -23.6   -42.1   -23.6      -26.7  -2.42 
      # i 22 more rows
…
      attr(,"effect")$mpg$ale$d1$continent
      # A tibble: 3 x 7
        continent.bin    .n     .y  .y_lo .y_mean .y_median  .y_hi
        <ord>         <int>  <dbl>  <dbl>   <dbl>     <dbl>  <dbl>
      1 North America    24 -0.519 -0.689  -0.519    -0.433 -0.421
      2 Europe           28  0.761 -0.235   0.761     0.449  2.02 
      3 Asia             12 -2.56  -3.96   -2.56     -1.85  -1.75 
      
      
      attr(,"effect")$mpg$ale$d2
      attr(,"effect")$mpg$ale$d2$`model:cyl`
      # A tibble: 224 x 8
         model.bin        cyl.ceil    .n       .y    .y_lo  .y_mean .y_median    .y_hi
         <ord>               <dbl> <int>    <dbl>    <dbl>    <dbl>     <dbl>    <dbl>
       1 Duster 360              3     0 6.50e-14 6.50e-14 6.50e-14  6.50e-14 6.50e-14
       2 Camaro Z28              3     0 6.50e-14 6.50e-14 6.50e-14  6.50e-14 6.50e-14
       3 Chrysler Imperi~        3     0 6.50e-14 6.50e-14 6.50e-14  6.50e-14 6.50e-14
       4 Cadillac Fleetw~        3     0 5.96e-14 5.96e-14 5.96e-14  5.96e-14 5.96e-14
       5 Lincoln Contine~        3     0 5.96e-14 5.96e-14 5.96e-14  5.96e-14 5.96e-14
       6 Pontiac Firebird        3     0 5.91e-14 5.91e-14 5.91e-14  5.91e-14 5.91e-14
       7 Hornet Sportabo~        3     0 5.81e-14 5.81e-14 5.81e-14  5.81e-14 5.81e-14
       8 AMC Javelin             3     0 5.48e-14 5.48e-14 5.48e-14  5.48e-14 5.48e-14
       9 Dodge Challenger        3     0 5.46e-14 5.46e-14 5.46e-14  5.46e-14 5.46e-14
      10 Merc 450SLC             3     0 5.38e-14 5.38e-14 5.38e-14  5.38e-14 5.38e-14
      # i 214 more rows
      
      attr(,"effect")$mpg$ale$d2$`model:disp`
      # A tibble: 320 x 8
         model.bin   disp.ceil    .n        .y     .y_lo   .y_mean .y_median     .y_hi
         <ord>           <dbl> <int>     <dbl>     <dbl>     <dbl>     <dbl>     <dbl>
       1 Duster 360       70.9     0 -7.60e-15 -7.60e-15 -7.60e-15 -7.60e-15 -7.60e-15
       2 Camaro Z28       70.9     0 -1.03e-14 -1.03e-14 -1.03e-14 -1.03e-14 -1.03e-14
       3 Chrysler I~      70.9     0 -1.47e-14 -1.47e-14 -1.47e-14 -1.47e-14 -1.47e-14
       4 Cadillac F~      70.9     0 -1.83e-14 -1.83e-14 -1.83e-14 -1.83e-14 -1.83e-14
       5 Lincoln Co~      70.9     0 -1.87e-14 -1.87e-14 -1.87e-14 -1.87e-14 -1.87e-14
       6 Pontiac Fi~      70.9     0 -2.00e-14 -2.00e-14 -2.00e-14 -2.00e-14 -2.00e-14
       7 Hornet Spo~      70.9     0 -2.14e-14 -2.14e-14 -2.14e-14 -2.14e-14 -2.14e-14
       8 AMC Javelin      70.9     0 -2.18e-14 -2.18e-14 -2.18e-14 -2.18e-14 -2.18e-14
       9 Dodge Chal~      70.9     0 -2.14e-14 -2.14e-14 -2.14e-14 -2.14e-14 -2.14e-14
      10 Merc 450SLC      70.9     0 -1.96e-14 -1.96e-14 -1.96e-14 -1.96e-14 -1.96e-14
      # i 310 more rows
      
      attr(,"effect")$mpg$ale$d2$`model:hp`
      # A tibble: 320 x 8
         model.bin         hp.ceil    .n       .y    .y_lo  .y_mean .y_median    .y_hi
         <ord>               <dbl> <int>    <dbl>    <dbl>    <dbl>     <dbl>    <dbl>
       1 Duster 360             52     0 4.15e-14 4.15e-14 4.15e-14  4.15e-14 4.15e-14
       2 Camaro Z28             52     0 4.15e-14 4.15e-14 4.15e-14  4.15e-14 4.15e-14
       3 Chrysler Imperial      52     0 4.20e-14 4.20e-14 4.20e-14  4.20e-14 4.20e-14
       4 Cadillac Fleetwo~      52     0 4.20e-14 4.20e-14 4.20e-14  4.20e-14 4.20e-14
       5 Lincoln Continen~      52     0 4.29e-14 4.29e-14 4.29e-14  4.29e-14 4.29e-14
       6 Pontiac Firebird       52     0 4.38e-14 4.38e-14 4.38e-14  4.38e-14 4.38e-14
       7 Hornet Sportabout      52     0 4.38e-14 4.38e-14 4.38e-14  4.38e-14 4.38e-14
       8 AMC Javelin            52     0 4.38e-14 4.38e-14 4.38e-14  4.38e-14 4.38e-14
       9 Dodge Challenger       52     0 4.51e-14 4.51e-14 4.51e-14  4.51e-14 4.51e-14
      10 Merc 450SLC            52     0 4.60e-14 4.60e-14 4.60e-14  4.60e-14 4.60e-14
      # i 310 more rows
      
      attr(,"effect")$mpg$ale$d2$`model:drat`
      # A tibble: 320 x 8
         model.bin       drat.ceil    .n       .y    .y_lo  .y_mean .y_median    .y_hi
         <ord>               <dbl> <int>    <dbl>    <dbl>    <dbl>     <dbl>    <dbl>
       1 Duster 360           2.74     0 9.22e-15 9.22e-15 9.22e-15  9.22e-15 9.22e-15
       2 Camaro Z28           2.74     0 5.96e-15 5.96e-15 5.96e-15  5.96e-15 5.96e-15
       3 Chrysler Imper~      2.74     0 4.78e-15 4.78e-15 4.78e-15  4.78e-15 4.78e-15
       4 Cadillac Fleet~      2.74     0 3.89e-15 3.89e-15 3.89e-15  3.89e-15 3.89e-15
       5 Lincoln Contin~      2.74     0 3.89e-15 3.89e-15 3.89e-15  3.89e-15 3.89e-15
       6 Pontiac Firebi~      2.74     0 4.78e-15 4.78e-15 4.78e-15  4.78e-15 4.78e-15
       7 Hornet Sportab~      2.74     0 5.22e-15 5.22e-15 5.22e-15  5.22e-15 5.22e-15
       8 AMC Javelin          2.74     0 4.78e-15 4.78e-15 4.78e-15  4.78e-15 4.78e-15
       9 Dodge Challeng~      2.74     0 4.78e-15 4.78e-15 4.78e-15  4.78e-15 4.78e-15
      10 Merc 450SLC          2.74     0 3.53e-15 3.53e-15 3.53e-15  3.53e-15 3.53e-15
      # i 310 more rows
      
      attr(,"effect")$mpg$ale$d2$`model:wt`
      # A tibble: 320 x 8
         model.bin     wt.ceil    .n        .y     .y_lo   .y_mean .y_median     .y_hi
         <ord>           <dbl> <int>     <dbl>     <dbl>     <dbl>     <dbl>     <dbl>
       1 Duster 360       1.50     0 -2.59e-15 -2.59e-15 -2.59e-15 -2.59e-15 -2.59e-15
       2 Camaro Z28       1.50     0 -2.59e-15 -2.59e-15 -2.59e-15 -2.59e-15 -2.59e-15
       3 Chrysler Imp~    1.50     0 -8.17e-16 -8.17e-16 -8.17e-16 -8.17e-16 -8.17e-16
       4 Cadillac Fle~    1.50     0  5.15e-16  5.15e-16  5.15e-16  5.15e-16  5.15e-16
       5 Lincoln Cont~    1.50     0  1.55e-15  1.55e-15  1.55e-15  1.55e-15  1.55e-15
       6 Pontiac Fire~    1.50     0  3.18e-15  3.18e-15  3.18e-15  3.18e-15  3.18e-15
       7 Hornet Sport~    1.50     0  3.18e-15  3.18e-15  3.18e-15  3.18e-15  3.18e-15
       8 AMC Javelin      1.50     0  3.18e-15  3.18e-15  3.18e-15  3.18e-15  3.18e-15
       9 Dodge Challe~    1.50     0  1.85e-15  1.85e-15  1.85e-15  1.85e-15  1.85e-15
      10 Merc 450SLC      1.50     0  4.56e-16  4.56e-16  4.56e-16  4.56e-16  4.56e-16
      # i 310 more rows
      
      attr(,"effect")$mpg$ale$d2$`model:qsec`
      # A tibble: 320 x 8
         model.bin       qsec.ceil    .n       .y    .y_lo  .y_mean .y_median    .y_hi
         <ord>               <dbl> <int>    <dbl>    <dbl>    <dbl>     <dbl>    <dbl>
       1 Duster 360           14.5     0 3.81e-14 3.81e-14 3.81e-14  3.81e-14 3.81e-14
       2 Camaro Z28           14.5     0 3.72e-14 3.72e-14 3.72e-14  3.72e-14 3.72e-14
       3 Chrysler Imper~      14.5     0 3.53e-14 3.53e-14 3.53e-14  3.53e-14 3.53e-14
       4 Cadillac Fleet~      14.5     0 3.33e-14 3.33e-14 3.33e-14  3.33e-14 3.33e-14
       5 Lincoln Contin~      14.5     0 3.08e-14 3.08e-14 3.08e-14  3.08e-14 3.08e-14
       6 Pontiac Firebi~      14.5     0 2.75e-14 2.75e-14 2.75e-14  2.75e-14 2.75e-14
       7 Hornet Sportab~      14.5     0 2.55e-14 2.55e-14 2.55e-14  2.55e-14 2.55e-14
       8 AMC Javelin          14.5     0 2.25e-14 2.25e-14 2.25e-14  2.25e-14 2.25e-14
       9 Dodge Challeng~      14.5     0 1.96e-14 1.96e-14 1.96e-14  1.96e-14 1.96e-14
      10 Merc 450SLC          14.5     0 1.77e-14 1.77e-14 1.77e-14  1.77e-14 1.77e-14
      # i 310 more rows
      
      attr(,"effect")$mpg$ale$d2$`model:vs`
      # A tibble: 64 x 8
         model.bin          vs.bin    .n       .y    .y_lo  .y_mean .y_median    .y_hi
         <ord>              <ord>  <int>    <dbl>    <dbl>    <dbl>     <dbl>    <dbl>
       1 Duster 360         FALSE      2 4.26e-15 2.48e-15 4.26e-15  2.48e-15 7.55e-15
       2 Camaro Z28         FALSE      2 4.26e-15 2.48e-15 4.26e-15  2.48e-15 7.55e-15
       3 Chrysler Imperial  FALSE      2 4.26e-15 2.57e-15 4.26e-15  4.26e-15 5.95e-15
       4 Cadillac Fleetwood FALSE      2 4.26e-15 2.57e-15 4.26e-15  4.26e-15 5.95e-15
       5 Lincoln Continent~ FALSE      2 4.85e-15 2.66e-15 4.85e-15  6.04e-15 6.04e-15
       6 Pontiac Firebird   FALSE      2 4.26e-15 2.57e-15 4.26e-15  4.26e-15 5.95e-15
       7 Hornet Sportabout  FALSE      2 3.08e-15 2.48e-15 3.08e-15  2.48e-15 4.17e-15
       8 AMC Javelin        FALSE      2 5.44e-15 2.48e-15 5.44e-15  2.48e-15 1.09e-14
       9 Dodge Challenger   FALSE      2 6.04e-15 2.48e-15 6.04e-15  2.48e-15 1.26e-14
      10 Merc 450SLC        FALSE      2 4.85e-15 2.48e-15 4.85e-15  2.48e-15 9.23e-15
      # i 54 more rows
      
      attr(,"effect")$mpg$ale$d2$`model:am`
      # A tibble: 64 x 8
         model.bin       am.bin    .n        .y     .y_lo   .y_mean .y_median    .y_hi
         <ord>           <ord>  <int>     <dbl>     <dbl>     <dbl>     <dbl>    <dbl>
       1 Duster 360      FALSE      2  2.15e-16  2.15e-16  2.15e-16  2.15e-16 2.15e-16
       2 Camaro Z28      FALSE      2  8.07e-16  2.15e-16  8.07e-16  2.15e-16 1.90e-15
       3 Chrysler Imper~ FALSE      2  1.40e-15  3.04e-16  1.40e-15  1.99e-15 1.99e-15
       4 Cadillac Fleet~ FALSE      2  2.15e-16 -1.47e-15  2.15e-16  2.15e-16 1.90e-15
       5 Lincoln Contin~ FALSE      2 -9.69e-16 -4.85e-15 -9.69e-16  2.15e-16 1.90e-15
       6 Pontiac Firebi~ FALSE      2 -9.69e-16 -4.85e-15 -9.69e-16  2.15e-16 1.90e-15
       7 Hornet Sportab~ FALSE      2  1.99e-15 -4.85e-15  1.99e-15  2.15e-16 1.03e-14
       8 AMC Javelin     FALSE      2  1.99e-15 -4.85e-15  1.99e-15  2.15e-16 1.03e-14
       9 Dodge Challeng~ FALSE      2  1.40e-15 -6.54e-15  1.40e-15  2.15e-16 1.03e-14
      10 Merc 450SLC     FALSE      2  2.15e-16 -6.54e-15  2.15e-16  2.15e-16 6.97e-15
      # i 54 more rows
      
      attr(,"effect")$mpg$ale$d2$`model:gear`
      # A tibble: 96 x 8
         model.bin        gear.bin    .n       .y    .y_lo  .y_mean .y_median    .y_hi
         <ord>            <ord>    <int>    <dbl>    <dbl>    <dbl>     <dbl>    <dbl>
       1 Duster 360       three        2 1.11e-15 1.11e-15 1.11e-15  1.11e-15 1.11e-15
       2 Camaro Z28       three        2 4.67e-15 1.38e-15 4.67e-15  6.44e-15 6.44e-15
       3 Chrysler Imperi~ three        2 8.22e-15 1.56e-15 8.22e-15  9.99e-15 1.34e-14
       4 Cadillac Fleetw~ three        2 9.99e-15 1.73e-15 9.99e-15  1.35e-14 1.52e-14
       5 Lincoln Contine~ three        2 9.40e-15 1.73e-15 9.40e-15  1.35e-14 1.35e-14
       6 Pontiac Firebird three        2 9.40e-15 1.73e-15 9.40e-15  1.35e-14 1.35e-14
       7 Hornet Sportabo~ three        2 9.40e-15 1.73e-15 9.40e-15  1.35e-14 1.35e-14
       8 AMC Javelin      three        2 9.99e-15 1.73e-15 9.99e-15  1.35e-14 1.52e-14
       9 Dodge Challenger three        2 9.40e-15 1.65e-15 9.40e-15  1.18e-14 1.51e-14
      10 Merc 450SLC      three        2 9.40e-15 1.65e-15 9.40e-15  1.18e-14 1.51e-14
      # i 86 more rows
      
      attr(,"effect")$mpg$ale$d2$`model:carb`
      # A tibble: 160 x 8
         model.bin       carb.ceil    .n       .y    .y_lo  .y_mean .y_median    .y_hi
         <ord>               <dbl> <int>    <dbl>    <dbl>    <dbl>     <dbl>    <dbl>
       1 Duster 360              1     0 8.42e-15 8.42e-15 8.42e-15  8.42e-15 8.42e-15
       2 Camaro Z28              1     0 8.42e-15 8.42e-15 8.42e-15  8.42e-15 8.42e-15
       3 Chrysler Imper~         1     0 8.42e-15 8.42e-15 8.42e-15  8.42e-15 8.42e-15
       4 Cadillac Fleet~         1     0 8.42e-15 8.42e-15 8.42e-15  8.42e-15 8.42e-15
       5 Lincoln Contin~         1     0 8.42e-15 8.42e-15 8.42e-15  8.42e-15 8.42e-15
       6 Pontiac Firebi~         1     0 8.42e-15 8.42e-15 8.42e-15  8.42e-15 8.42e-15
       7 Hornet Sportab~         1     0 8.42e-15 8.42e-15 8.42e-15  8.42e-15 8.42e-15
       8 AMC Javelin             1     0 8.42e-15 8.42e-15 8.42e-15  8.42e-15 8.42e-15
       9 Dodge Challeng~         1     0 8.42e-15 8.42e-15 8.42e-15  8.42e-15 8.42e-15
      10 Merc 450SLC             1     0 8.42e-15 8.42e-15 8.42e-15  8.42e-15 8.42e-15
      # i 150 more rows
      
      attr(,"effect")$mpg$ale$d2$`model:country`
      # A tibble: 192 x 8
         model.bin country.bin    .n        .y     .y_lo   .y_mean .y_median     .y_hi
         <ord>     <ord>       <int>     <dbl>     <dbl>     <dbl>     <dbl>     <dbl>
       1 Duster 3~ Sweden          0 -1.60e-14 -1.60e-14 -1.60e-14 -1.60e-14 -1.60e-14
       2 Camaro Z~ Sweden          0 -1.60e-14 -1.60e-14 -1.60e-14 -1.60e-14 -1.60e-14
       3 Chrysler~ Sweden          0 -1.66e-14 -1.66e-14 -1.66e-14 -1.66e-14 -1.66e-14
       4 Cadillac~ Sweden          0 -1.49e-14 -1.49e-14 -1.49e-14 -1.49e-14 -1.49e-14
       5 Lincoln ~ Sweden          0 -1.49e-14 -1.49e-14 -1.49e-14 -1.49e-14 -1.49e-14
       6 Pontiac ~ Sweden          0 -1.49e-14 -1.49e-14 -1.49e-14 -1.49e-14 -1.49e-14
       7 Hornet S~ Sweden          0 -1.49e-14 -1.49e-14 -1.49e-14 -1.49e-14 -1.49e-14
       8 AMC Jave~ Sweden          0 -1.44e-14 -1.44e-14 -1.44e-14 -1.44e-14 -1.44e-14
       9 Dodge Ch~ Sweden          0 -1.27e-14 -1.27e-14 -1.27e-14 -1.27e-14 -1.27e-14
      10 Merc 450~ Sweden          0 -1.27e-14 -1.27e-14 -1.27e-14 -1.27e-14 -1.27e-14
      # i 182 more rows
      
      attr(,"effect")$mpg$ale$d2$`model:continent`
      # A tibble: 96 x 8
         model.bin         continent.bin    .n        .y     .y_lo   .y_mean .y_median
         <ord>             <ord>         <int>     <dbl>     <dbl>     <dbl>     <dbl>
       1 Duster 360        North America     2 -6.14e-16 -6.14e-16 -6.14e-16 -6.14e-16
       2 Camaro Z28        North America     2 -6.14e-16 -2.30e-15 -6.14e-16 -6.14e-16
       3 Chrysler Imperial North America     2 -2.09e-15 -7.36e-15 -2.09e-15 -6.14e-16
       4 Cadillac Fleetwo~ North America     2 -3.18e-16 -9.05e-15 -3.18e-16 -6.14e-16
       5 Lincoln Continen~ North America     2  2.75e-16 -7.36e-15  2.75e-16 -6.14e-16
       6 Pontiac Firebird  North America     2  2.75e-16 -8.21e-15  2.75e-16 -6.14e-16
       7 Hornet Sportabout North America     2  2.05e-15 -1.46e-15  2.05e-15 -6.14e-16
       8 AMC Javelin       North America     2  3.24e-15 -4.80e-16  3.24e-15  2.05e-15
       9 Dodge Challenger  North America     2  3.24e-15 -3.92e-16  3.24e-15  3.83e-15
      10 Merc 450SLC       North America     0  2.79e-15 -3.92e-16  2.79e-15  3.83e-15
      # i 86 more rows
      # i 1 more variable: .y_hi <dbl>
      
      attr(,"effect")$mpg$ale$d2$`cyl:disp`
      # A tibble: 70 x 8
         cyl.ceil disp.ceil    .n        .y     .y_lo   .y_mean .y_median     .y_hi
            <dbl>     <dbl> <int>     <dbl>     <dbl>     <dbl>     <dbl>     <dbl>
       1        3      70.9     0 -1.16e-15 -1.16e-15 -1.16e-15 -1.16e-15 -1.16e-15
       2        4      70.9     0 -8.49e-16 -8.49e-16 -8.49e-16 -8.49e-16 -8.49e-16
       3        5      70.9     1 -8.49e-16 -8.49e-16 -8.49e-16 -8.49e-16 -8.49e-16
       4        6      70.9     0  1.57e-15  1.57e-15  1.57e-15  1.57e-15  1.57e-15
       5        7      70.9     0  6.78e-15  6.78e-15  6.78e-15  6.78e-15  6.78e-15
       6        8      70.9     0  6.66e-15  6.66e-15  6.66e-15  6.66e-15  6.66e-15
       7        9      70.9     0  6.66e-15  6.66e-15  6.66e-15  6.66e-15  6.66e-15
       8        3      79.0     1 -1.67e-15 -1.67e-15 -1.67e-15 -1.67e-15 -1.67e-15
       9        4      79.0     6 -5.67e-16 -4.67e-15 -5.67e-16 -1.72e-16  3.20e-15
      10        5      79.0     0 -5.67e-16 -4.67e-15 -5.67e-16 -1.72e-16  3.20e-15
      # i 60 more rows
      
      attr(,"effect")$mpg$ale$d2$`cyl:hp`
      # A tibble: 70 x 8
         cyl.ceil hp.ceil    .n        .y     .y_lo   .y_mean .y_median     .y_hi
            <dbl>   <dbl> <int>     <dbl>     <dbl>     <dbl>     <dbl>     <dbl>
       1        3      52     0 -7.83e-16 -7.83e-16 -7.83e-16 -7.83e-16 -7.83e-16
       2        4      52     1  9.58e-16  9.58e-16  9.58e-16  9.58e-16  9.58e-16
       3        5      52     0 -5.56e-15 -5.56e-15 -5.56e-15 -5.56e-15 -5.56e-15
       4        6      52     0 -5.77e-15 -5.77e-15 -5.77e-15 -5.77e-15 -5.77e-15
       5        7      52     0 -5.45e-15 -5.45e-15 -5.45e-15 -5.45e-15 -5.45e-15
       6        8      52     0 -4.19e-15 -4.19e-15 -4.19e-15 -4.19e-15 -4.19e-15
       7        9      52     0 -4.19e-15 -4.19e-15 -4.19e-15 -4.19e-15 -4.19e-15
       8        3      66     1 -6.35e-16 -6.35e-16 -6.35e-16 -6.35e-16 -6.35e-16
       9        4      66     6  9.48e-16 -1.65e-15  9.48e-16 -7.80e-17  4.42e-15
      10        5      66     1 -8.28e-16 -1.82e-15 -8.28e-16 -1.14e-15  4.31e-16
      # i 60 more rows
      
      attr(,"effect")$mpg$ale$d2$`cyl:drat`
      # A tibble: 70 x 8
         cyl.ceil drat.ceil    .n        .y     .y_lo   .y_mean .y_median     .y_hi
            <dbl>     <dbl> <int>     <dbl>     <dbl>     <dbl>     <dbl>     <dbl>
       1        3      2.74     0  6.87e-15  6.87e-15  6.87e-15  6.87e-15  6.87e-15
       2        4      2.74     0  1.35e-14  1.35e-14  1.35e-14  1.35e-14  1.35e-14
       3        5      2.74     0  1.24e-14  1.24e-14  1.24e-14  1.24e-14  1.24e-14
       4        6      2.74     1  4.88e-15  4.88e-15  4.88e-15  4.88e-15  4.88e-15
       5        7      2.74     0  1.61e-16  1.61e-16  1.61e-16  1.61e-16  1.61e-16
       6        8      2.74     0 -9.98e-16 -9.98e-16 -9.98e-16 -9.98e-16 -9.98e-16
       7        9      2.74     0 -9.98e-16 -9.98e-16 -9.98e-16 -9.98e-16 -9.98e-16
       8        3      3.02     0  9.91e-15  9.91e-15  9.91e-15  9.91e-15  9.91e-15
       9        4      3.02     0  1.65e-14  1.65e-14  1.65e-14  1.65e-14  1.65e-14
      10        5      3.02     0  1.54e-14  1.54e-14  1.54e-14  1.54e-14  1.54e-14
      # i 60 more rows
…
