…
      <object>
      attr(,"S7_class")
      <ale::ALE> class
      @ parent     : <S7_object>
      @ constructor: function(data, model, x_cols, y_col, ..., complete_d, parallel, model_packages, output, pred_fun, pred_type, p_values, p_alpha, max_num_bins, boot_it, seed, boot_alpha, boot_centre, y_type, median_band_pct, sample_size, min_rug_per_interval, bins, ns, silent) {...}
      @ validator  : <NULL>
      @ properties :
       $ distinct: <list>
       $ params  : <list>
      attr(,"distinct")
      attr(,"distinct")$Asia
      attr(,"distinct")$Asia$ale
      attr(,"distinct")$Asia$ale[[1]]
      attr(,"distinct")$Asia$ale[[1]]$model
      # A tibble: 32 x 7
         model.bin              .n     .y  .y_lo .y_mean .y_median  .y_hi
         <ord>               <int>  <dbl>  <dbl>   <dbl>     <dbl>  <dbl>
       1 Duster 360              2 0.0209 0.0209  0.0209    0.0209 0.0209
       2 Camaro Z28              2 0.0209 0.0209  0.0209    0.0209 0.0209
       3 Lincoln Continental     2 0.0209 0.0209  0.0209    0.0209 0.0209
       4 Cadillac Fleetwood      2 0.0209 0.0209  0.0209    0.0209 0.0209
       5 Chrysler Imperial       2 0.0209 0.0209  0.0209    0.0209 0.0209
       6 Hornet Sportabout       2 0.0209 0.0209  0.0209    0.0209 0.0209
       7 Pontiac Firebird        2 0.0209 0.0209  0.0209    0.0209 0.0209
       8 AMC Javelin             2 0.0208 0.0208  0.0208    0.0208 0.0208
       9 Dodge Challenger        2 0.0208 0.0208  0.0208    0.0208 0.0208
      10 Merc 450SLC             2 0.0208 0.0208  0.0208    0.0208 0.0208
      # i 22 more rows
…
      attr(,"distinct")$Asia$stats[[1]]$conf_regions
      attr(,"distinct")$Asia$stats[[1]]$conf_regions$by_term
      # A tibble: 61 x 12
         term  x       start_x end_x x_span_pct     n   pct      y start_y end_y trend
         <chr> <chr>     <dbl> <dbl>      <dbl> <int> <dbl>  <dbl>   <dbl> <dbl> <dbl>
       1 model Duster~      NA    NA         NA     2  3.12 0.0209      NA    NA    NA
       2 model Camaro~      NA    NA         NA     2  3.12 0.0209      NA    NA    NA
       3 model Lincol~      NA    NA         NA     2  3.12 0.0209      NA    NA    NA
       4 model Cadill~      NA    NA         NA     2  3.12 0.0209      NA    NA    NA
       5 model Chrysl~      NA    NA         NA     2  3.12 0.0209      NA    NA    NA
       6 model Hornet~      NA    NA         NA     2  3.12 0.0209      NA    NA    NA
       7 model Pontia~      NA    NA         NA     2  3.12 0.0209      NA    NA    NA
       8 model AMC Ja~      NA    NA         NA     2  3.12 0.0208      NA    NA    NA
       9 model Dodge ~      NA    NA         NA     2  3.12 0.0208      NA    NA    NA
      10 model Merc 4~      NA    NA         NA     2  3.12 0.0208      NA    NA    NA
      # i 51 more rows
      # i 1 more variable: mid_bar <ord>
      
      attr(,"distinct")$Asia$stats[[1]]$conf_regions$significant
      # A tibble: 54 x 12
         term  x       start_x end_x x_span_pct     n   pct      y start_y end_y trend
         <chr> <chr>     <dbl> <dbl>      <dbl> <int> <dbl>  <dbl>   <dbl> <dbl> <dbl>
       1 model Duster~      NA    NA         NA     2  3.12 0.0209      NA    NA    NA
       2 model Camaro~      NA    NA         NA     2  3.12 0.0209      NA    NA    NA
       3 model Lincol~      NA    NA         NA     2  3.12 0.0209      NA    NA    NA
       4 model Cadill~      NA    NA         NA     2  3.12 0.0209      NA    NA    NA
       5 model Chrysl~      NA    NA         NA     2  3.12 0.0209      NA    NA    NA
       6 model Hornet~      NA    NA         NA     2  3.12 0.0209      NA    NA    NA
       7 model Pontia~      NA    NA         NA     2  3.12 0.0209      NA    NA    NA
       8 model AMC Ja~      NA    NA         NA     2  3.12 0.0208      NA    NA    NA
       9 model Dodge ~      NA    NA         NA     2  3.12 0.0208      NA    NA    NA
      10 model Merc 4~      NA    NA         NA     2  3.12 0.0208      NA    NA    NA
      # i 44 more rows
      # i 1 more variable: mid_bar <ord>
      
      attr(,"distinct")$Asia$stats[[1]]$conf_regions$sig_criterion
      [1] "median_band_pct"
      
      
      
      
      
      attr(,"distinct")$Europe
      attr(,"distinct")$Europe$ale
      attr(,"distinct")$Europe$ale[[1]]
      attr(,"distinct")$Europe$ale[[1]]$model
      # A tibble: 32 x 7
         model.bin              .n      .y   .y_lo .y_mean .y_median   .y_hi
         <ord>               <int>   <dbl>   <dbl>   <dbl>     <dbl>   <dbl>
       1 Duster 360              2  0.537   0.537   0.537     0.537   0.537 
       2 Camaro Z28              2  0.537   0.537   0.537     0.537   0.537 
       3 Lincoln Continental     2  0.537   0.537   0.537     0.537   0.537 
       4 Cadillac Fleetwood      2  0.537   0.537   0.537     0.537   0.537 
       5 Chrysler Imperial       2  0.537   0.537   0.537     0.537   0.537 
       6 Hornet Sportabout       2  0.537   0.537   0.537     0.537   0.537 
       7 Pontiac Firebird        2  0.537   0.537   0.537     0.537   0.537 
       8 AMC Javelin             2 -0.0168 -0.0168 -0.0168   -0.0168 -0.0168
       9 Dodge Challenger        2 -0.0168 -0.0168 -0.0168   -0.0168 -0.0168
      10 Merc 450SLC             2 -0.0167 -0.0167 -0.0167   -0.0167 -0.0167
      # i 22 more rows
…
      attr(,"distinct")$Europe$stats[[1]]$conf_regions
      attr(,"distinct")$Europe$stats[[1]]$conf_regions$by_term
      # A tibble: 61 x 12
         term  x      start_x end_x x_span_pct     n   pct       y start_y end_y trend
         <chr> <chr>    <dbl> <dbl>      <dbl> <int> <dbl>   <dbl>   <dbl> <dbl> <dbl>
       1 model Duste~      NA    NA         NA     2  3.12  0.537       NA    NA    NA
       2 model Camar~      NA    NA         NA     2  3.12  0.537       NA    NA    NA
       3 model Linco~      NA    NA         NA     2  3.12  0.537       NA    NA    NA
       4 model Cadil~      NA    NA         NA     2  3.12  0.537       NA    NA    NA
       5 model Chrys~      NA    NA         NA     2  3.12  0.537       NA    NA    NA
       6 model Horne~      NA    NA         NA     2  3.12  0.537       NA    NA    NA
       7 model Ponti~      NA    NA         NA     2  3.12  0.537       NA    NA    NA
       8 model AMC J~      NA    NA         NA     2  3.12 -0.0168      NA    NA    NA
       9 model Dodge~      NA    NA         NA     2  3.12 -0.0168      NA    NA    NA
      10 model Merc ~      NA    NA         NA     2  3.12 -0.0167      NA    NA    NA
      # i 51 more rows
      # i 1 more variable: mid_bar <ord>
      
      attr(,"distinct")$Europe$stats[[1]]$conf_regions$significant
      # A tibble: 52 x 12
         term  x      start_x end_x x_span_pct     n   pct       y start_y end_y trend
         <chr> <chr>    <dbl> <dbl>      <dbl> <int> <dbl>   <dbl>   <dbl> <dbl> <dbl>
       1 model Duste~      NA    NA         NA     2  3.12  0.537       NA    NA    NA
       2 model Camar~      NA    NA         NA     2  3.12  0.537       NA    NA    NA
       3 model Linco~      NA    NA         NA     2  3.12  0.537       NA    NA    NA
       4 model Cadil~      NA    NA         NA     2  3.12  0.537       NA    NA    NA
       5 model Chrys~      NA    NA         NA     2  3.12  0.537       NA    NA    NA
       6 model Horne~      NA    NA         NA     2  3.12  0.537       NA    NA    NA
       7 model Ponti~      NA    NA         NA     2  3.12  0.537       NA    NA    NA
       8 model AMC J~      NA    NA         NA     2  3.12 -0.0168      NA    NA    NA
       9 model Dodge~      NA    NA         NA     2  3.12 -0.0168      NA    NA    NA
      10 model Merc ~      NA    NA         NA     2  3.12 -0.0167      NA    NA    NA
      # i 42 more rows
      # i 1 more variable: mid_bar <ord>
      
      attr(,"distinct")$Europe$stats[[1]]$conf_regions$sig_criterion
      [1] "median_band_pct"
      
      
      
      
      
      attr(,"distinct")$`North America`
      attr(,"distinct")$`North America`$ale
      attr(,"distinct")$`North America`$ale[[1]]
      attr(,"distinct")$`North America`$ale[[1]]$model
      # A tibble: 32 x 7
         model.bin              .n       .y    .y_lo  .y_mean .y_median    .y_hi
         <ord>               <int>    <dbl>    <dbl>    <dbl>     <dbl>    <dbl>
       1 Duster 360              2 -0.558   -0.558   -0.558    -0.558   -0.558  
       2 Camaro Z28              2 -0.558   -0.558   -0.558    -0.558   -0.558  
       3 Lincoln Continental     2 -0.558   -0.558   -0.558    -0.558   -0.558  
       4 Cadillac Fleetwood      2 -0.558   -0.558   -0.558    -0.558   -0.558  
       5 Chrysler Imperial       2 -0.558   -0.558   -0.558    -0.558   -0.558  
       6 Hornet Sportabout       2 -0.558   -0.558   -0.558    -0.558   -0.558  
       7 Pontiac Firebird        2 -0.558   -0.558   -0.558    -0.558   -0.558  
       8 AMC Javelin             2 -0.00399 -0.00399 -0.00399  -0.00399 -0.00399
       9 Dodge Challenger        2 -0.00399 -0.00399 -0.00399  -0.00399 -0.00399
      10 Merc 450SLC             2 -0.00404 -0.00404 -0.00404  -0.00404 -0.00404
      # i 22 more rows
…
      attr(,"distinct")$`North America`$stats[[1]]$conf_regions
      attr(,"distinct")$`North America`$stats[[1]]$conf_regions$by_term
      # A tibble: 60 x 12
         term  x     start_x end_x x_span_pct     n   pct        y start_y end_y trend
         <chr> <chr>   <dbl> <dbl>      <dbl> <int> <dbl>    <dbl>   <dbl> <dbl> <dbl>
       1 model Dust~      NA    NA         NA     2  3.12 -0.558        NA    NA    NA
       2 model Cama~      NA    NA         NA     2  3.12 -0.558        NA    NA    NA
       3 model Linc~      NA    NA         NA     2  3.12 -0.558        NA    NA    NA
       4 model Cadi~      NA    NA         NA     2  3.12 -0.558        NA    NA    NA
       5 model Chry~      NA    NA         NA     2  3.12 -0.558        NA    NA    NA
       6 model Horn~      NA    NA         NA     2  3.12 -0.558        NA    NA    NA
       7 model Pont~      NA    NA         NA     2  3.12 -0.558        NA    NA    NA
       8 model AMC ~      NA    NA         NA     2  3.12 -0.00399      NA    NA    NA
       9 model Dodg~      NA    NA         NA     2  3.12 -0.00399      NA    NA    NA
      10 model Merc~      NA    NA         NA     2  3.12 -0.00404      NA    NA    NA
      # i 50 more rows
      # i 1 more variable: mid_bar <ord>
      
      attr(,"distinct")$`North America`$stats[[1]]$conf_regions$significant
      # A tibble: 53 x 12
         term  x     start_x end_x x_span_pct     n   pct        y start_y end_y trend
         <chr> <chr>   <dbl> <dbl>      <dbl> <int> <dbl>    <dbl>   <dbl> <dbl> <dbl>
       1 model Dust~      NA    NA         NA     2  3.12 -0.558        NA    NA    NA
       2 model Cama~      NA    NA         NA     2  3.12 -0.558        NA    NA    NA
       3 model Linc~      NA    NA         NA     2  3.12 -0.558        NA    NA    NA
       4 model Cadi~      NA    NA         NA     2  3.12 -0.558        NA    NA    NA
       5 model Chry~      NA    NA         NA     2  3.12 -0.558        NA    NA    NA
       6 model Horn~      NA    NA         NA     2  3.12 -0.558        NA    NA    NA
       7 model Pont~      NA    NA         NA     2  3.12 -0.558        NA    NA    NA
       8 model AMC ~      NA    NA         NA     2  3.12 -0.00399      NA    NA    NA
       9 model Dodg~      NA    NA         NA     2  3.12 -0.00399      NA    NA    NA
      10 model Merc~      NA    NA         NA     2  3.12 -0.00404      NA    NA    NA
      # i 43 more rows
      # i 1 more variable: mid_bar <ord>
…
      attr(,"params")$data
      attr(,"params")$data$name
      [1] "structure(list(model = c(\"Mazda RX4\", \"Mazda RX4 Wag\", "
      
      attr(,"params")$data$data_sample
      # A tibble: 64 x 14
         model         mpg   cyl  disp    hp  drat    wt  qsec vs    am    gear   carb
         <chr>       <dbl> <int> <dbl> <dbl> <dbl> <dbl> <dbl> <lgl> <lgl> <ord> <int>
       1 Mazda RX4    21       6  160    110  3.9   2.62  16.5 FALSE TRUE  four      4
       2 Mazda RX4 ~  21       6  160    110  3.9   2.88  17.0 FALSE TRUE  four      4
       3 Datsun 710   22.8     4  108     93  3.85  2.32  18.6 TRUE  TRUE  four      1
       4 Hornet 4 D~  21.4     6  258    110  3.08  3.22  19.4 TRUE  FALSE three     1
       5 Hornet Spo~  18.7     8  360    175  3.15  3.44  17.0 FALSE FALSE three     2
       6 Valiant      18.1     6  225    105  2.76  3.46  20.2 TRUE  FALSE three     1
       7 Duster 360   14.3     8  360    245  3.21  3.57  15.8 FALSE FALSE three     4
       8 Merc 240D    24.4     4  147.    62  3.69  3.19  20   TRUE  FALSE four      2
       9 Merc 230     22.8     4  141.    95  3.92  3.15  22.9 TRUE  FALSE four      2
      10 Merc 280     19.2     6  168.   123  3.92  3.44  18.3 TRUE  FALSE four      4
      # i 54 more rows
      # i 2 more variables: country <fct>, continent <fct>
…
      attr(,"params")$data
      attr(,"params")$data$name
      [1] "structure(list(model = c(\"Mazda RX4\", \"Mazda RX4 Wag\", "
      
      attr(,"params")$data$data_sample
      # A tibble: 64 x 14
         model         mpg   cyl  disp    hp  drat    wt  qsec vs    am    gear   carb
         <chr>       <dbl> <int> <dbl> <dbl> <dbl> <dbl> <dbl> <lgl> <lgl> <ord> <int>
       1 Mazda RX4    21       6  160    110  3.9   2.62  16.5 FALSE TRUE  four      4
       2 Mazda RX4 ~  21       6  160    110  3.9   2.88  17.0 FALSE TRUE  four      4
       3 Datsun 710   22.8     4  108     93  3.85  2.32  18.6 TRUE  TRUE  four      1
       4 Hornet 4 D~  21.4     6  258    110  3.08  3.22  19.4 TRUE  FALSE three     1
       5 Hornet Spo~  18.7     8  360    175  3.15  3.44  17.0 FALSE FALSE three     2
       6 Valiant      18.1     6  225    105  2.76  3.46  20.2 TRUE  FALSE three     1
       7 Duster 360   14.3     8  360    245  3.21  3.57  15.8 FALSE FALSE three     4
       8 Merc 240D    24.4     4  147.    62  3.69  3.19  20   TRUE  FALSE four      2
       9 Merc 230     22.8     4  141.    95  3.92  3.15  22.9 TRUE  FALSE four      2
      10 Merc 280     19.2     6  168.   123  3.92  3.44  18.3 TRUE  FALSE four      4
      # i 54 more rows
      # i 2 more variables: country <fct>, continent <fct>
…
      attr(,"params")$data
      attr(,"params")$data$name
      [1] "structure(list(model = c(\"Mazda RX4\", \"Mazda RX4 Wag\", "
      
      attr(,"params")$data$data_sample
      # A tibble: 64 x 14
         model         mpg   cyl  disp    hp  drat    wt  qsec vs    am    gear   carb
         <chr>       <dbl> <int> <dbl> <dbl> <dbl> <dbl> <dbl> <lgl> <lgl> <ord> <int>
       1 Mazda RX4    21       6  160    110  3.9   2.62  16.5 FALSE TRUE  four      4
       2 Mazda RX4 ~  21       6  160    110  3.9   2.88  17.0 FALSE TRUE  four      4
       3 Datsun 710   22.8     4  108     93  3.85  2.32  18.6 TRUE  TRUE  four      1
       4 Hornet 4 D~  21.4     6  258    110  3.08  3.22  19.4 TRUE  FALSE three     1
       5 Hornet Spo~  18.7     8  360    175  3.15  3.44  17.0 FALSE FALSE three     2
       6 Valiant      18.1     6  225    105  2.76  3.46  20.2 TRUE  FALSE three     1
       7 Duster 360   14.3     8  360    245  3.21  3.57  15.8 FALSE FALSE three     4
       8 Merc 240D    24.4     4  147.    62  3.69  3.19  20   TRUE  FALSE four      2
       9 Merc 230     22.8     4  141.    95  3.92  3.15  22.9 TRUE  FALSE four      2
      10 Merc 280     19.2     6  168.   123  3.92  3.44  18.3 TRUE  FALSE four      4
      # i 54 more rows
      # i 2 more variables: country <fct>, continent <fct>
…
