# numeric outcome works with multiple x datatypes

    Code
      cars_ale
    Output
      $data
      $data$mpg
      $data$mpg$model
      # A tibble: 32 x 8
         cat   ale_x             ale_n ale_y ale_y_lo ale_y_mean ale_y_median ale_y_hi
         <fct> <fct>             <int> <dbl>    <dbl>      <dbl>        <dbl>    <dbl>
       1 mpg   Duster 360            2  19.2     19.2       19.2         19.2     19.2
       2 mpg   Camaro Z28            2  23.6     23.6       23.6         23.6     23.6
       3 mpg   Chrysler Imperial     2  18.2     18.2       18.2         18.2     18.2
       4 mpg   Cadillac Fleetwo~     2  19.1     19.1       19.1         19.1     19.1
       5 mpg   Lincoln Continen~     2  22.0     22.0       22.0         22.0     22.0
       6 mpg   Pontiac Firebird      2  19.2     19.2       19.2         19.2     19.2
       7 mpg   Hornet Sportabout     2  13.1     13.1       13.1         13.1     13.1
       8 mpg   AMC Javelin           2  15.6     15.6       15.6         15.6     15.6
       9 mpg   Dodge Challenger      2  14.0     14.0       14.0         14.0     14.0
      10 mpg   Merc 450SLC           2  16.7     16.7       16.7         16.7     16.7
      # i 22 more rows
…
      $plots$mpg$country
        PANEL group xmin xmax ymin ymax
      1     1    -1    0    1    0    1
      
      $plots$mpg$continent
        PANEL group xmin xmax ymin ymax
      1     1    -1    0    1    0    1
      
      
      
      $conf_regions
      $conf_regions$mpg
      $conf_regions$mpg$by_term
      $conf_regions$mpg$by_term$model
      # A tibble: 32 x 5
         x                       n  n_pct     y relative_to_mid
         <fct>               <int>  <dbl> <dbl> <ord>          
       1 Duster 360              2 0.0312  19.2 overlap        
       2 Camaro Z28              2 0.0312  23.6 above          
       3 Chrysler Imperial       2 0.0312  18.2 below          
       4 Cadillac Fleetwood      2 0.0312  19.1 overlap        
       5 Lincoln Continental     2 0.0312  22.0 above          
       6 Pontiac Firebird        2 0.0312  19.2 overlap        
       7 Hornet Sportabout       2 0.0312  13.1 below          
       8 AMC Javelin             2 0.0312  15.6 below          
       9 Dodge Challenger        2 0.0312  14.0 below          
      10 Merc 450SLC             2 0.0312  16.7 below          
      # i 22 more rows
…
      $conf_regions$mpg$by_term$continent
      # A tibble: 3 x 5
        x                 n n_pct     y relative_to_mid
        <fct>         <int> <dbl> <dbl> <ord>          
      1 North America    24 0.375  19.2 overlap        
      2 Europe           28 0.438  13.0 below          
      3 Asia             12 0.188  13.0 below          
      
      
      $conf_regions$mpg$significant
      # A tibble: 47 x 12
         term  x           start_x end_x x_span     n  n_pct     y start_y end_y trend
         <chr> <chr>         <dbl> <dbl>  <dbl> <int>  <dbl> <dbl>   <dbl> <dbl> <dbl>
       1 model Camaro Z28       NA    NA     NA     2 0.0312  23.6      NA    NA    NA
       2 model Chrysler I~      NA    NA     NA     2 0.0312  18.2      NA    NA    NA
       3 model Lincoln Co~      NA    NA     NA     2 0.0312  22.0      NA    NA    NA
       4 model Hornet Spo~      NA    NA     NA     2 0.0312  13.1      NA    NA    NA
       5 model AMC Javelin      NA    NA     NA     2 0.0312  15.6      NA    NA    NA
       6 model Dodge Chal~      NA    NA     NA     2 0.0312  14.0      NA    NA    NA
       7 model Merc 450SLC      NA    NA     NA     2 0.0312  16.7      NA    NA    NA
       8 model Merc 450SL       NA    NA     NA     2 0.0312  17.6      NA    NA    NA
       9 model Merc 450SE       NA    NA     NA     2 0.0312  17.6      NA    NA    NA
      10 model Ford Pante~      NA    NA     NA     2 0.0312  10.5      NA    NA    NA
      # i 37 more rows
      # i 1 more variable: relative_to_mid <ord>
…
      $params$valid_x_cols
      logical(0)
      
      $params$all_x_cols
      NULL
      
      $params$data
      $params$data$name
      [1] "structure(list(model = c(\"Mazda RX4\", \"Mazda RX4 Wag\", "
      
      $params$data$sample
      # A tibble: 64 x 14
         model         mpg   cyl  disp    hp  drat    wt  qsec vs    am    gear   carb
         <chr>       <dbl> <int> <dbl> <dbl> <dbl> <dbl> <dbl> <lgl> <lgl> <ord> <int>
       1 Mazda RX4    21       6  160    110  3.9   2.62  16.5 FALSE TRUE  four      4
       2 Mazda RX4 ~  21       6  160    110  3.9   2.88  17.0 FALSE TRUE  four      4
       3 Datsun 710   22.8     4  108     93  3.85  2.32  18.6 TRUE  TRUE  four      1
       4 Hornet 4 D~  21.4     6  258    110  3.08  3.22  19.4 TRUE  FALSE three     1
       5 Hornet Spo~  18.7     8  360    175  3.15  3.44  17.0 FALSE FALSE three     2
       6 Valiant      18.1     6  225    105  2.76  3.46  20.2 TRUE  FALSE three     1
       7 Duster 360   14.3     8  360    245  3.21  3.57  15.8 FALSE FALSE three     4
       8 Merc 240D    24.4     4  147.    62  3.69  3.19  20   TRUE  FALSE four      2
       9 Merc 230     22.8     4  141.    95  3.92  3.15  22.9 TRUE  FALSE four      2
      10 Merc 280     19.2     6  168.   123  3.92  3.44  18.3 TRUE  FALSE four      4
      # i 54 more rows
      # i 2 more variables: country <fct>, continent <fct>
…
      
      attr(,"class")
      [1] "ale"
      attr(,"ale_version")
      [1] '0.3.0.20240823'

# binary outcome default works with multiple x datatypes

    Code
      cars_ale
    Output
      $data
      $data$vs
      $data$vs$model
      # A tibble: 32 x 8
         cat   ale_x          ale_n    ale_y ale_y_lo ale_y_mean ale_y_median ale_y_hi
         <fct> <fct>          <int>    <dbl>    <dbl>      <dbl>        <dbl>    <dbl>
       1 vs    Duster 360         2 3.93e-13 3.93e-13   3.93e-13     3.93e-13 3.93e-13
       2 vs    Camaro Z28         2 3.93e-13 3.93e-13   3.93e-13     3.93e-13 3.93e-13
       3 vs    Chrysler Impe~     2 3.93e-13 3.93e-13   3.93e-13     3.93e-13 3.93e-13
       4 vs    Cadillac Flee~     2 3.93e-13 3.93e-13   3.93e-13     3.93e-13 3.93e-13
       5 vs    Lincoln Conti~     2 3.93e-13 3.93e-13   3.93e-13     3.93e-13 3.93e-13
       6 vs    Pontiac Fireb~     2 3.93e-13 3.93e-13   3.93e-13     3.93e-13 3.93e-13
       7 vs    Hornet Sporta~     2 3.93e-13 3.93e-13   3.93e-13     3.93e-13 3.93e-13
       8 vs    AMC Javelin        2 3.93e-13 3.93e-13   3.93e-13     3.93e-13 3.93e-13
       9 vs    Dodge Challen~     2 1.00e+ 0 1.00e+ 0   1.00e+ 0     1.00e+ 0 1.00e+ 0
      10 vs    Valiant            2 1.00e+ 0 1.00e+ 0   1.00e+ 0     1.00e+ 0 1.00e+ 0
      # i 22 more rows
…
      $plots$vs$country
        PANEL group xmin xmax ymin ymax
      1     1    -1    0    1    0    1
      
      $plots$vs$continent
        PANEL group xmin xmax ymin ymax
      1     1    -1    0    1    0    1
      
      
      
      $conf_regions
      $conf_regions$vs
      $conf_regions$vs$by_term
      $conf_regions$vs$by_term$model
      # A tibble: 32 x 5
         x                       n  n_pct        y relative_to_mid
         <fct>               <int>  <dbl>    <dbl> <ord>          
       1 Duster 360              2 0.0312 3.93e-13 overlap        
       2 Camaro Z28              2 0.0312 3.93e-13 below          
       3 Chrysler Imperial       2 0.0312 3.93e-13 below          
       4 Cadillac Fleetwood      2 0.0312 3.93e-13 below          
       5 Lincoln Continental     2 0.0312 3.93e-13 above          
       6 Pontiac Firebird        2 0.0312 3.93e-13 above          
       7 Hornet Sportabout       2 0.0312 3.93e-13 above          
       8 AMC Javelin             2 0.0312 3.93e-13 above          
       9 Dodge Challenger        2 0.0312 1.00e+ 0 above          
      10 Valiant                 2 0.0312 1.00e+ 0 above          
      # i 22 more rows
…
      $conf_regions$vs$by_term$continent
      # A tibble: 3 x 5
        x                 n n_pct         y relative_to_mid
        <fct>         <int> <dbl>     <dbl> <ord>          
      1 North America    24 0.375  3.93e-13 overlap        
      2 Europe           28 0.438 -4.52e- 4 below          
      3 Asia             12 0.188 -4.52e- 4 below          
      
      
      $conf_regions$vs$significant
      # A tibble: 54 x 12
         term  x        start_x end_x x_span     n  n_pct        y start_y end_y trend
         <chr> <chr>      <dbl> <dbl>  <dbl> <int>  <dbl>    <dbl>   <dbl> <dbl> <dbl>
       1 model Camaro ~      NA    NA     NA     2 0.0312 3.93e-13      NA    NA    NA
       2 model Chrysle~      NA    NA     NA     2 0.0312 3.93e-13      NA    NA    NA
       3 model Cadilla~      NA    NA     NA     2 0.0312 3.93e-13      NA    NA    NA
       4 model Lincoln~      NA    NA     NA     2 0.0312 3.93e-13      NA    NA    NA
       5 model Pontiac~      NA    NA     NA     2 0.0312 3.93e-13      NA    NA    NA
       6 model Hornet ~      NA    NA     NA     2 0.0312 3.93e-13      NA    NA    NA
       7 model AMC Jav~      NA    NA     NA     2 0.0312 3.93e-13      NA    NA    NA
       8 model Dodge C~      NA    NA     NA     2 0.0312 1.00e+ 0      NA    NA    NA
       9 model Valiant       NA    NA     NA     2 0.0312 1.00e+ 0      NA    NA    NA
      10 model Hornet ~      NA    NA     NA     2 0.0312 3.93e-13      NA    NA    NA
      # i 44 more rows
      # i 1 more variable: relative_to_mid <ord>
…
      $params$valid_x_cols
      logical(0)
      
      $params$all_x_cols
      NULL
      
      $params$data
      $params$data$name
      [1] "structure(list(model = c(\"Mazda RX4\", \"Mazda RX4 Wag\", "
      
      $params$data$sample
      # A tibble: 64 x 14
         model         mpg   cyl  disp    hp  drat    wt  qsec vs    am    gear   carb
         <chr>       <dbl> <int> <dbl> <dbl> <dbl> <dbl> <dbl> <lgl> <lgl> <ord> <int>
       1 Mazda RX4    21       6  160    110  3.9   2.62  16.5 FALSE TRUE  four      4
       2 Mazda RX4 ~  21       6  160    110  3.9   2.88  17.0 FALSE TRUE  four      4
       3 Datsun 710   22.8     4  108     93  3.85  2.32  18.6 TRUE  TRUE  four      1
       4 Hornet 4 D~  21.4     6  258    110  3.08  3.22  19.4 TRUE  FALSE three     1
       5 Hornet Spo~  18.7     8  360    175  3.15  3.44  17.0 FALSE FALSE three     2
       6 Valiant      18.1     6  225    105  2.76  3.46  20.2 TRUE  FALSE three     1
       7 Duster 360   14.3     8  360    245  3.21  3.57  15.8 FALSE FALSE three     4
       8 Merc 240D    24.4     4  147.    62  3.69  3.19  20   TRUE  FALSE four      2
       9 Merc 230     22.8     4  141.    95  3.92  3.15  22.9 TRUE  FALSE four      2
      10 Merc 280     19.2     6  168.   123  3.92  3.44  18.3 TRUE  FALSE four      4
      # i 54 more rows
      # i 2 more variables: country <fct>, continent <fct>
…
      
      attr(,"class")
      [1] "ale"
      attr(,"ale_version")
      [1] '0.3.0.20240823'

# categorical outcome default works with multiple x datatypes

    Code
      cars_ale
    Output
      $data
      $data$Asia
      $data$Asia$model
      # A tibble: 32 x 8
         cat   ale_x           ale_n   ale_y ale_y_lo ale_y_mean ale_y_median ale_y_hi
         <fct> <fct>           <int>   <dbl>    <dbl>      <dbl>        <dbl>    <dbl>
       1 Asia  Duster 360          2 5.74e-9  5.74e-9    5.74e-9      5.74e-9  5.74e-9
       2 Asia  Camaro Z28          2 3.74e-5  3.74e-5    3.74e-5      3.74e-5  3.74e-5
       3 Asia  Lincoln Contin~     2 3.74e-5  3.74e-5    3.74e-5      3.74e-5  3.74e-5
       4 Asia  Cadillac Fleet~     2 3.74e-5  3.74e-5    3.74e-5      3.74e-5  3.74e-5
       5 Asia  Chrysler Imper~     2 3.75e-5  3.75e-5    3.75e-5      3.75e-5  3.75e-5
       6 Asia  Hornet Sportab~     2 3.78e-5  3.78e-5    3.78e-5      3.78e-5  3.78e-5
       7 Asia  Pontiac Firebi~     2 3.78e-5  3.78e-5    3.78e-5      3.78e-5  3.78e-5
       8 Asia  AMC Javelin         2 3.77e-5  3.77e-5    3.77e-5      3.77e-5  3.77e-5
       9 Asia  Dodge Challeng~     2 3.77e-5  3.77e-5    3.77e-5      3.77e-5  3.77e-5
      10 Asia  Merc 450SLC         2 3.77e-5  3.77e-5    3.77e-5      3.77e-5  3.77e-5
      # i 22 more rows
…
      $data$Asia$country
      # A tibble: 6 x 8
        cat   ale_x   ale_n         ale_y    ale_y_lo ale_y_mean ale_y_median ale_y_hi
        <fct> <fct>   <int>         <dbl>       <dbl>      <dbl>        <dbl>    <dbl>
      1 Asia  UK          2 0.00000000574     5.74e-9    5.74e-9      5.74e-9  5.74e-9
      2 Asia  Sweden      2 0.00000000574     5.74e-9    5.74e-9      5.74e-9  5.74e-9
      3 Asia  Japan      12 0.00000000574     5.74e-9    5.74e-9      5.74e-9  5.74e-9
      4 Asia  Italy       8 0.00000000574     5.74e-9    5.74e-9      5.74e-9  5.74e-9
      5 Asia  Germany    16 0.00000000574     5.74e-9    5.74e-9      5.74e-9  5.74e-9
      6 Asia  USA        24 0.00000000574     5.74e-9    5.74e-9      5.74e-9  5.74e-9
      
      
      $data$Europe
      $data$Europe$model
      # A tibble: 32 x 8
         cat    ale_x          ale_n   ale_y ale_y_lo ale_y_mean ale_y_median ale_y_hi
         <fct>  <fct>          <int>   <dbl>    <dbl>      <dbl>        <dbl>    <dbl>
       1 Europe Duster 360         2 5.74e-9  5.74e-9    5.74e-9      5.74e-9  5.74e-9
       2 Europe Camaro Z28         2 6.76e-9  6.76e-9    6.76e-9      6.76e-9  6.76e-9
       3 Europe Lincoln Conti~     2 2.50e-6  2.50e-6    2.50e-6      2.50e-6  2.50e-6
       4 Europe Cadillac Flee~     2 2.50e-6  2.50e-6    2.50e-6      2.50e-6  2.50e-6
       5 Europe Chrysler Impe~     2 4.45e-4  4.45e-4    4.45e-4      4.45e-4  4.45e-4
       6 Europe Hornet Sporta~     2 4.45e-4  4.45e-4    4.45e-4      4.45e-4  4.45e-4
       7 Europe Pontiac Fireb~     2 4.45e-4  4.45e-4    4.45e-4      4.45e-4  4.45e-4
       8 Europe AMC Javelin        2 4.44e-4  4.44e-4    4.44e-4      4.44e-4  4.44e-4
       9 Europe Dodge Challen~     2 1.00e+0  1.00e+0    1.00e+0      1.00e+0  1.00e+0
      10 Europe Merc 450SLC        2 1.00e+0  1.00e+0    1.00e+0      1.00e+0  1.00e+0
      # i 22 more rows
…
      $data$Europe$country
      # A tibble: 6 x 8
        cat    ale_x   ale_n         ale_y   ale_y_lo ale_y_mean ale_y_median ale_y_hi
        <fct>  <fct>   <int>         <dbl>      <dbl>      <dbl>        <dbl>    <dbl>
      1 Europe UK          2 0.00000000574    5.74e-9    5.74e-9      5.74e-9  5.74e-9
      2 Europe Sweden      2 0.00000000574    5.74e-9    5.74e-9      5.74e-9  5.74e-9
      3 Europe Japan      12 0.00000000574    5.74e-9    5.74e-9      5.74e-9  5.74e-9
      4 Europe Italy       8 0.00000000574    5.74e-9    5.74e-9      5.74e-9  5.74e-9
      5 Europe Germany    16 0.00000000574    5.74e-9    5.74e-9      5.74e-9  5.74e-9
      6 Europe USA        24 0.00000000574    5.74e-9    5.74e-9      5.74e-9  5.74e-9
      
      
      $data$`North America`
      $data$`North America`$model
      # A tibble: 32 x 8
         cat           ale_x  ale_n    ale_y ale_y_lo ale_y_mean ale_y_median ale_y_hi
         <fct>         <fct>  <int>    <dbl>    <dbl>      <dbl>        <dbl>    <dbl>
       1 North America Duste~     2  5.74e-9  5.74e-9    5.74e-9      5.74e-9  5.74e-9
       2 North America Camar~     2 -3.74e-5 -3.74e-5   -3.74e-5     -3.74e-5 -3.74e-5
       3 North America Linco~     2 -3.99e-5 -3.99e-5   -3.99e-5     -3.99e-5 -3.99e-5
       4 North America Cadil~     2 -3.99e-5 -3.99e-5   -3.99e-5     -3.99e-5 -3.99e-5
       5 North America Chrys~     2 -4.82e-4 -4.82e-4   -4.82e-4     -4.82e-4 -4.82e-4
       6 North America Horne~     2 -4.83e-4 -4.83e-4   -4.83e-4     -4.83e-4 -4.83e-4
       7 North America Ponti~     2 -4.83e-4 -4.83e-4   -4.83e-4     -4.83e-4 -4.83e-4
       8 North America AMC J~     2 -4.82e-4 -4.82e-4   -4.82e-4     -4.82e-4 -4.82e-4
       9 North America Dodge~     2 -1.00e+0 -1.00e+0   -1.00e+0     -1.00e+0 -1.00e+0
      10 North America Merc ~     2 -1.00e+0 -1.00e+0   -1.00e+0     -1.00e+0 -1.00e+0
      # i 22 more rows
…
      $plots$`North America`$carb
        PANEL group xmin xmax ymin ymax
      1     1    -1    0    1    0    1
      
      $plots$`North America`$country
        PANEL group xmin xmax ymin ymax
      1     1    -1    0    1    0    1
      
      
      
      $conf_regions
      $conf_regions$Asia
      $conf_regions$Asia$by_term
      $conf_regions$Asia$by_term$model
      # A tibble: 32 x 5
         x                       n  n_pct             y relative_to_mid
         <fct>               <int>  <dbl>         <dbl> <ord>          
       1 Duster 360              2 0.0312 0.00000000574 above          
       2 Camaro Z28              2 0.0312 0.0000374     above          
       3 Lincoln Continental     2 0.0312 0.0000374     above          
       4 Cadillac Fleetwood      2 0.0312 0.0000374     above          
       5 Chrysler Imperial       2 0.0312 0.0000375     above          
       6 Hornet Sportabout       2 0.0312 0.0000378     above          
       7 Pontiac Firebird        2 0.0312 0.0000378     above          
       8 AMC Javelin             2 0.0312 0.0000377     above          
       9 Dodge Challenger        2 0.0312 0.0000377     above          
      10 Merc 450SLC             2 0.0312 0.0000377     above          
      # i 22 more rows
…
      $conf_regions$Asia$by_term$country
      # A tibble: 6 x 5
        x           n  n_pct             y relative_to_mid
        <fct>   <int>  <dbl>         <dbl> <ord>          
      1 UK          2 0.0312 0.00000000574 above          
      2 Sweden      2 0.0312 0.00000000574 above          
      3 Japan      12 0.188  0.00000000574 above          
      4 Italy       8 0.125  0.00000000574 above          
      5 Germany    16 0.25   0.00000000574 above          
      6 USA        24 0.375  0.00000000574 above          
      
      
      $conf_regions$Asia$significant
      # A tibble: 62 x 12
         term  x         start_x end_x x_span     n  n_pct       y start_y end_y trend
         <chr> <chr>       <dbl> <dbl>  <dbl> <int>  <dbl>   <dbl>   <dbl> <dbl> <dbl>
       1 model Duster 3~      NA    NA     NA     2 0.0312 5.74e-9      NA    NA    NA
       2 model Camaro Z~      NA    NA     NA     2 0.0312 3.74e-5      NA    NA    NA
       3 model Lincoln ~      NA    NA     NA     2 0.0312 3.74e-5      NA    NA    NA
       4 model Cadillac~      NA    NA     NA     2 0.0312 3.74e-5      NA    NA    NA
       5 model Chrysler~      NA    NA     NA     2 0.0312 3.75e-5      NA    NA    NA
       6 model Hornet S~      NA    NA     NA     2 0.0312 3.78e-5      NA    NA    NA
       7 model Pontiac ~      NA    NA     NA     2 0.0312 3.78e-5      NA    NA    NA
       8 model AMC Jave~      NA    NA     NA     2 0.0312 3.77e-5      NA    NA    NA
       9 model Dodge Ch~      NA    NA     NA     2 0.0312 3.77e-5      NA    NA    NA
      10 model Merc 450~      NA    NA     NA     2 0.0312 3.77e-5      NA    NA    NA
      # i 52 more rows
      # i 1 more variable: relative_to_mid <ord>
…
