…
    Output
      <object>
      attr(,"S7_class")
      <ale::ALEpDist> class
      @ parent     : <S7_object>
      @ constructor: function(model, data, ..., y_col, rand_it, surrogate, parallel, model_packages, random_model_call_string, random_model_call_string_vars, positive, pred_fun, pred_type, output_residuals, seed, silent, .skip_validation) {...}
      @ validator  : <NULL>
      @ properties :
       $ rand_stats           : <list>            
       $ residual_distribution: S3<univariateML>  
       $ residuals            : <double> or <NULL>
       $ params               : <list>            
      attr(,"rand_stats")
      attr(,"rand_stats")$mpg
      # A tibble: 100 x 6
            aled aler_min aler_max naled naler_min naler_max
           <dbl>    <dbl>    <dbl> <dbl>     <dbl>     <dbl>
       1 0.00199  -0.0112  0.00727 0.366     -1.56      1.56
       2 0.00394  -0.0118  0.0148  0.708     -1.56      1.56
       3 0.00425  -0.0170  0.0126  0.708     -1.56      1.56
       4 0.00647  -0.0215  0.0304  0.708     -1.56      1.56
       5 0.00365  -0.0149  0.0124  0.537     -1.56      1.56
       6 0.00281  -0.0121  0.0100  0.366     -1.56      1.56
       7 0.00599  -0.0172  0.0227  0.879     -1.56      1.56
       8 0.00574  -0.0333  0.0175  0.708     -1.56      1.56
       9 0.00733  -0.0321  0.0203  0.879     -1.56      1.56
      10 0.00729  -0.0228  0.0257  1.05      -1.56      1.56
      # i 90 more rows
…
