…
      $params$valid_x_cols
      [1] TRUE TRUE
      
      $params$all_x_cols
      [1] "cyl"  "disp"
      
      $params$data
      $params$data$name
      [1] "structure(list(model = c(\"Mazda RX4\", \"Mazda RX4 Wag\", "
      
      $params$data$sample
      # A tibble: 64 x 14
         model         mpg   cyl  disp    hp  drat    wt  qsec vs    am    gear   carb
         <chr>       <dbl> <int> <dbl> <dbl> <dbl> <dbl> <dbl> <lgl> <lgl> <ord> <int>
       1 Mazda RX4    21       6  160    110  3.9   2.62  16.5 FALSE TRUE  four      4
       2 Mazda RX4 ~  21       6  160    110  3.9   2.88  17.0 FALSE TRUE  four      4
       3 Datsun 710   22.8     4  108     93  3.85  2.32  18.6 TRUE  TRUE  four      1
       4 Hornet 4 D~  21.4     6  258    110  3.08  3.22  19.4 TRUE  FALSE three     1
       5 Hornet Spo~  18.7     8  360    175  3.15  3.44  17.0 FALSE FALSE three     2
       6 Valiant      18.1     6  225    105  2.76  3.46  20.2 TRUE  FALSE three     1
       7 Duster 360   14.3     8  360    245  3.21  3.57  15.8 FALSE FALSE three     4
       8 Merc 240D    24.4     4  147.    62  3.69  3.19  20   TRUE  FALSE four      2
       9 Merc 230     22.8     4  141.    95  3.92  3.15  22.9 TRUE  FALSE four      2
      10 Merc 280     19.2     6  168.   123  3.92  3.44  18.3 TRUE  FALSE four      4
      # i 54 more rows
      # i 2 more variables: country <fct>, continent <fct>
…
      $params
      $params$n_rows
      [1] 64
      
      $params$calc_boot_valid
      [1] FALSE
      
      $params$data
      $params$data$name
      [1] "data"
      
      $params$data$sample
      # A tibble: 64 x 14
         model         mpg   cyl  disp    hp  drat    wt  qsec vs    am    gear   carb
         <chr>       <dbl> <int> <dbl> <dbl> <dbl> <dbl> <dbl> <lgl> <lgl> <ord> <int>
       1 Mazda RX4    21       6  160    110  3.9   2.62  16.5 FALSE TRUE  four      4
       2 Mazda RX4 ~  21       6  160    110  3.9   2.88  17.0 FALSE TRUE  four      4
       3 Datsun 710   22.8     4  108     93  3.85  2.32  18.6 TRUE  TRUE  four      1
       4 Hornet 4 D~  21.4     6  258    110  3.08  3.22  19.4 TRUE  FALSE three     1
       5 Hornet Spo~  18.7     8  360    175  3.15  3.44  17.0 FALSE FALSE three     2
       6 Valiant      18.1     6  225    105  2.76  3.46  20.2 TRUE  FALSE three     1
       7 Duster 360   14.3     8  360    245  3.21  3.57  15.8 FALSE FALSE three     4
       8 Merc 240D    24.4     4  147.    62  3.69  3.19  20   TRUE  FALSE four      2
       9 Merc 230     22.8     4  141.    95  3.92  3.15  22.9 TRUE  FALSE four      2
      10 Merc 280     19.2     6  168.   123  3.92  3.44  18.3 TRUE  FALSE four      4
      # i 54 more rows
      # i 2 more variables: country <fct>, continent <fct>
…
      $params$valid_x_cols
      [1] TRUE TRUE
      
      $params$all_x_cols
      [1] "vs"   "gear"
      
      $params$data
      $params$data$name
      [1] "structure(list(model = c(\"Mazda RX4\", \"Mazda RX4 Wag\", "
      
      $params$data$sample
      # A tibble: 64 x 14
         model         mpg   cyl  disp    hp  drat    wt  qsec vs    am    gear   carb
         <chr>       <dbl> <int> <dbl> <dbl> <dbl> <dbl> <dbl> <lgl> <lgl> <ord> <int>
       1 Mazda RX4    21       6  160    110  3.9   2.62  16.5 FALSE TRUE  four      4
       2 Mazda RX4 ~  21       6  160    110  3.9   2.88  17.0 FALSE TRUE  four      4
       3 Datsun 710   22.8     4  108     93  3.85  2.32  18.6 TRUE  TRUE  four      1
       4 Hornet 4 D~  21.4     6  258    110  3.08  3.22  19.4 TRUE  FALSE three     1
       5 Hornet Spo~  18.7     8  360    175  3.15  3.44  17.0 FALSE FALSE three     2
       6 Valiant      18.1     6  225    105  2.76  3.46  20.2 TRUE  FALSE three     1
       7 Duster 360   14.3     8  360    245  3.21  3.57  15.8 FALSE FALSE three     4
       8 Merc 240D    24.4     4  147.    62  3.69  3.19  20   TRUE  FALSE four      2
       9 Merc 230     22.8     4  141.    95  3.92  3.15  22.9 TRUE  FALSE four      2
      10 Merc 280     19.2     6  168.   123  3.92  3.44  18.3 TRUE  FALSE four      4
      # i 54 more rows
      # i 2 more variables: country <fct>, continent <fct>
…
      $params$calc_boot_valid
      [1] TRUE
      
      $params$y_type
      [1] "numeric"
      
      $params$y_cats
      [1] "mpg"
      
      $params$data
      $params$data$name
      [1] "data"
      
      $params$data$sample
      # A tibble: 64 x 14
         model         mpg   cyl  disp    hp  drat    wt  qsec vs    am    gear   carb
         <chr>       <dbl> <int> <dbl> <dbl> <dbl> <dbl> <dbl> <lgl> <lgl> <ord> <int>
       1 Mazda RX4    21       6  160    110  3.9   2.62  16.5 FALSE TRUE  four      4
       2 Mazda RX4 ~  21       6  160    110  3.9   2.88  17.0 FALSE TRUE  four      4
       3 Datsun 710   22.8     4  108     93  3.85  2.32  18.6 TRUE  TRUE  four      1
       4 Hornet 4 D~  21.4     6  258    110  3.08  3.22  19.4 TRUE  FALSE three     1
       5 Hornet Spo~  18.7     8  360    175  3.15  3.44  17.0 FALSE FALSE three     2
       6 Valiant      18.1     6  225    105  2.76  3.46  20.2 TRUE  FALSE three     1
       7 Duster 360   14.3     8  360    245  3.21  3.57  15.8 FALSE FALSE three     4
       8 Merc 240D    24.4     4  147.    62  3.69  3.19  20   TRUE  FALSE four      2
       9 Merc 230     22.8     4  141.    95  3.92  3.15  22.9 TRUE  FALSE four      2
      10 Merc 280     19.2     6  168.   123  3.92  3.44  18.3 TRUE  FALSE four      4
      # i 54 more rows
      # i 2 more variables: country <fct>, continent <fct>
…
      $params$valid_x_cols
      [1] TRUE TRUE
      
      $params$all_x_cols
      [1] "country"   "continent"
      
      $params$data
      $params$data$name
      [1] "structure(list(model = c(\"Mazda RX4\", \"Mazda RX4 Wag\", "
      
      $params$data$sample
      # A tibble: 64 x 14
         model         mpg   cyl  disp    hp  drat    wt  qsec vs    am    gear   carb
         <chr>       <dbl> <int> <dbl> <dbl> <dbl> <dbl> <dbl> <lgl> <lgl> <ord> <int>
       1 Mazda RX4    21       6  160    110  3.9   2.62  16.5 FALSE TRUE  four      4
       2 Mazda RX4 ~  21       6  160    110  3.9   2.88  17.0 FALSE TRUE  four      4
       3 Datsun 710   22.8     4  108     93  3.85  2.32  18.6 TRUE  TRUE  four      1
       4 Hornet 4 D~  21.4     6  258    110  3.08  3.22  19.4 TRUE  FALSE three     1
       5 Hornet Spo~  18.7     8  360    175  3.15  3.44  17.0 FALSE FALSE three     2
       6 Valiant      18.1     6  225    105  2.76  3.46  20.2 TRUE  FALSE three     1
       7 Duster 360   14.3     8  360    245  3.21  3.57  15.8 FALSE FALSE three     4
       8 Merc 240D    24.4     4  147.    62  3.69  3.19  20   TRUE  FALSE four      2
       9 Merc 230     22.8     4  141.    95  3.92  3.15  22.9 TRUE  FALSE four      2
      10 Merc 280     19.2     6  168.   123  3.92  3.44  18.3 TRUE  FALSE four      4
      # i 54 more rows
      # i 2 more variables: country <fct>, continent <fct>
…
      $params$calc_boot_valid
      [1] TRUE
      
      $params$y_type
      [1] "numeric"
      
      $params$y_cats
      [1] "mpg"
      
      $params$data
      $params$data$name
      [1] "data"
      
      $params$data$sample
      # A tibble: 64 x 14
         model         mpg   cyl  disp    hp  drat    wt  qsec vs    am    gear   carb
         <chr>       <dbl> <int> <dbl> <dbl> <dbl> <dbl> <dbl> <lgl> <lgl> <ord> <int>
       1 Mazda RX4    21       6  160    110  3.9   2.62  16.5 FALSE TRUE  four      4
       2 Mazda RX4 ~  21       6  160    110  3.9   2.88  17.0 FALSE TRUE  four      4
       3 Datsun 710   22.8     4  108     93  3.85  2.32  18.6 TRUE  TRUE  four      1
       4 Hornet 4 D~  21.4     6  258    110  3.08  3.22  19.4 TRUE  FALSE three     1
       5 Hornet Spo~  18.7     8  360    175  3.15  3.44  17.0 FALSE FALSE three     2
       6 Valiant      18.1     6  225    105  2.76  3.46  20.2 TRUE  FALSE three     1
       7 Duster 360   14.3     8  360    245  3.21  3.57  15.8 FALSE FALSE three     4
       8 Merc 240D    24.4     4  147.    62  3.69  3.19  20   TRUE  FALSE four      2
       9 Merc 230     22.8     4  141.    95  3.92  3.15  22.9 TRUE  FALSE four      2
      10 Merc 280     19.2     6  168.   123  3.92  3.44  18.3 TRUE  FALSE four      4
      # i 54 more rows
      # i 2 more variables: country <fct>, continent <fct>
…
      $params$valid_x_cols
      [1] TRUE TRUE
      
      $params$all_x_cols
      [1] "cyl"  "disp"
      
      $params$data
      $params$data$name
      [1] "structure(list(model = c(\"Mazda RX4\", \"Mazda RX4 Wag\", "
      
      $params$data$sample
      # A tibble: 64 x 14
         model         mpg   cyl  disp    hp  drat    wt  qsec vs    am    gear   carb
         <chr>       <dbl> <int> <dbl> <dbl> <dbl> <dbl> <dbl> <lgl> <lgl> <ord> <int>
       1 Mazda RX4    21       6  160    110  3.9   2.62  16.5 FALSE TRUE  four      4
       2 Mazda RX4 ~  21       6  160    110  3.9   2.88  17.0 FALSE TRUE  four      4
       3 Datsun 710   22.8     4  108     93  3.85  2.32  18.6 TRUE  TRUE  four      1
       4 Hornet 4 D~  21.4     6  258    110  3.08  3.22  19.4 TRUE  FALSE three     1
       5 Hornet Spo~  18.7     8  360    175  3.15  3.44  17.0 FALSE FALSE three     2
       6 Valiant      18.1     6  225    105  2.76  3.46  20.2 TRUE  FALSE three     1
       7 Duster 360   14.3     8  360    245  3.21  3.57  15.8 FALSE FALSE three     4
       8 Merc 240D    24.4     4  147.    62  3.69  3.19  20   TRUE  FALSE four      2
       9 Merc 230     22.8     4  141.    95  3.92  3.15  22.9 TRUE  FALSE four      2
      10 Merc 280     19.2     6  168.   123  3.92  3.44  18.3 TRUE  FALSE four      4
      # i 54 more rows
      # i 2 more variables: country <fct>, continent <fct>
…
      $params$calc_boot_valid
      [1] TRUE
      
      $params$y_type
      [1] "binary"
      
      $params$y_cats
      [1] "vs"
      
      $params$data
      $params$data$name
      [1] "data"
      
      $params$data$sample
      # A tibble: 64 x 14
         model         mpg   cyl  disp    hp  drat    wt  qsec vs    am    gear   carb
         <chr>       <dbl> <int> <dbl> <dbl> <dbl> <dbl> <dbl> <lgl> <lgl> <ord> <int>
       1 Mazda RX4    21       6  160    110  3.9   2.62  16.5 FALSE TRUE  four      4
       2 Mazda RX4 ~  21       6  160    110  3.9   2.88  17.0 FALSE TRUE  four      4
       3 Datsun 710   22.8     4  108     93  3.85  2.32  18.6 TRUE  TRUE  four      1
       4 Hornet 4 D~  21.4     6  258    110  3.08  3.22  19.4 TRUE  FALSE three     1
       5 Hornet Spo~  18.7     8  360    175  3.15  3.44  17.0 FALSE FALSE three     2
       6 Valiant      18.1     6  225    105  2.76  3.46  20.2 TRUE  FALSE three     1
       7 Duster 360   14.3     8  360    245  3.21  3.57  15.8 FALSE FALSE three     4
       8 Merc 240D    24.4     4  147.    62  3.69  3.19  20   TRUE  FALSE four      2
       9 Merc 230     22.8     4  141.    95  3.92  3.15  22.9 TRUE  FALSE four      2
      10 Merc 280     19.2     6  168.   123  3.92  3.44  18.3 TRUE  FALSE four      4
      # i 54 more rows
      # i 2 more variables: country <fct>, continent <fct>
…
