…
      attr(,"class")
      [1] "p_dist" "ale"   
      attr(,"ale_version")
      [1] '0.3.0.20240426'

---

    Code
      cars_ale
    Output
      $data
      $data$mpg
      $data$mpg$model
      # A tibble: 32 x 7
         ale_x               ale_n ale_y ale_y_lo ale_y_mean ale_y_median ale_y_hi
         <ord>               <int> <dbl>    <dbl>      <dbl>        <dbl>    <dbl>
       1 Duster 360              2  23.1     23.1       23.1         23.1     23.1
       2 Camaro Z28              2  22.2     22.0       22.2         22.0     22.6
       3 Chrysler Imperial       2  23.0     20.3       23.0         23.6     25.1
       4 Cadillac Fleetwood      2  23.0     21.8       23.0         22.9     24.2
       5 Lincoln Continental     2  22.5     19.5       22.5         24.0     24.2
       6 Pontiac Firebird        2  24.9     23.2       24.9         24.4     27.0
       7 Hornet Sportabout       2  22.7     21.2       22.7         22.6     24.3
       8 AMC Javelin             2  21.0     17.5       21.0         22.2     23.3
       9 Dodge Challenger        2  19.2     18.0       19.2         18.6     20.8
      10 Merc 450SLC             2  18.2     17.4       18.2         17.5     19.5
      # i 22 more rows
…
