ALE data and statistics that describe a trained model — ALE • ale
…
#>  1       0.2      7 -3234. -3234.  -3234.    -3234. -3234.
#>  2       0.36  4737 -1009. -1009.  -1009.    -1009. -1009.
#>  3       0.5   4431   869.   869.    869.      869.   869.
#>  4       0.6   4100  2101.  2101.   2101.     2101.  2101.
#>  5       0.73  4442  3467.  3467.   3467.     3467.  3467.
#>  6       0.94  4406  4910.  4910.   4910.     4910.  4910.
#>  7       1.03  4535  5244.  5244.   5244.     5244.  5244.
#>  8       1.2   4370  5604.  5604.   5604.     5604.  5604.
#>  9       1.52  4605  6446.  6446.   6446.     6446.  6446.
#> 10       5.01  4106  9489.  9489.   9489.     9489.  9489.
#> 
#> 
#> $d2
#> $d2$`color:depth_pct`
#> # A tibble: 70 × 8
#>    color.bin depth_pct.ceil    .n    .y .y_lo .y_mean .y_median .y_hi
#>    <ord>              <dbl> <int> <dbl> <dbl>   <dbl>     <dbl> <dbl>
#>  1 D                     43     0  3365  3365    3365      3365  3365
#>  2 E                     43     0  3365  3365    3365      3365  3365
#>  3 F                     43     0  3365  3365    3365      3365  3365
#>  4 G                     43     1  3365  3365    3365      3365  3365
#>  5 H                     43     0  3365  3365    3365      3365  3365
#>  6 I                     43     0  3365  3365    3365      3365  3365
#>  7 J                     43     1  3365  3365    3365      3365  3365
#>  8 D                     60   627  3365  3365    3365      3365  3365
#>  9 E                     60   940  3365  3365    3365      3365  3365
#> 10 F                     60   871  3365  3365    3365      3365  3365
#> # ℹ 60 more rows
#> 
#> 
get(ale_diamonds_with_boot_data, what = 'boot_data')  # raw bootstrap data
#> $d1
#> $d1$carat
#> # A tibble: 110 × 6
#>      .it carat .y_composite    .n .y_distinct     .y
#>    <dbl> <dbl>        <dbl> <dbl>       <dbl>  <dbl>
#>  1     0  0.2        -3234.     7      -3234. -3234.
#>  2     0  0.36       -1009.  4737      -1009. -1009.
#>  3     0  0.5          869.  4431        869.   869.
#>  4     0  0.6         2101.  4100       2101.  2101.
#>  5     0  0.73        3467.  4442       3467.  3467.
#>  6     0  0.94        4910.  4406       4910.  4910.
#>  7     0  1.03        5244.  4535       5244.  5244.
#>  8     0  1.2         5604.  4370       5604.  5604.
#>  9     0  1.52        6446.  4605       6446.  6446.
#> 10     0  5.01        9489.  4106       9489.  9489.
#> # ℹ 100 more rows
#> 
#> $d1$cut
#> # A tibble: 55 × 6
#>      .it cut       .y_composite    .n .y_distinct    .y
#>    <dbl> <fct>            <dbl> <dbl>       <dbl> <dbl>
#>  1     0 Fair             3110.  1492       3110. 3110.
#>  2     0 Good             3245.  4173       3245. 3245.
#>  3     0 Very Good        3314.  9714       3314. 3314.
#>  4     0 Premium          3318.  9657       3318. 3318.
#>  5     0 Ideal            3489. 14703       3489. 3489.
#>  6     1 Fair             3361.  1492       3361. 3361.
#>  7     1 Good             3615.  4173       3615. 3615.
#>  8     1 Very Good        3733.  9714       3733. 3733.
#>  9     1 Premium          3785.  9657       3785. 3785.
#> 10     1 Ideal            3831. 14703       3831. 3831.
#> # ℹ 45 more rows
#> 
#> $d1$clarity
#> # A tibble: 88 × 6
#>      .it clarity .y_composite    .n .y_distinct    .y
#>    <dbl> <fct>          <dbl> <dbl>       <dbl> <dbl>
#>  1     0 I1             -109.   704       -109. -109.
#>  2     0 SI2            2114.  7916       2114. 2114.
#>  3     0 SI1            3035.  9857       3035. 3035.
#>  4     0 VS2            3702.  8227       3702. 3702.
#>  5     0 VS1            4020.  6007       4020. 4020.
#>  6     0 VVS2           4517.  3463       4517. 4517.
#>  7     0 VVS1           4594.  2413       4594. 4594.
#>  8     0 IF             5052.  1152       5052. 5052.
#>  9     1 I1             3356.   704       3356. 3356.
#> 10     1 SI2            6830.  7916       6830. 6830.
#> # ℹ 78 more rows
#> 
#> 
#> $d2
#> $d2$`carat:clarity`
#> # A tibble: 880 × 7
#>      .it carat clarity .y_composite    .n .y_distinct    .y
#>    <dbl> <dbl> <fct>          <dbl> <dbl>       <dbl> <dbl>
#>  1     0  0.2  I1              3365     0       3365  3365 
#>  2     0  0.36 I1              3365    10       3365  3365 
#>  3     0  0.5  I1              3365    28       3365  3365 
#>  4     0  0.6  I1              3365    14       3365  3365 
#>  5     0  0.73 I1              3365    55       3365  3365 
#>  6     0  0.94 I1              3365    56       3365  3365 
#>  7     0  1.03 I1              3365   134       3365  3365 
#>  8     0  1.2  I1              3365   125       3365  3365 
#>  9     0  1.52 I1              3365   119       3365  3365 
#> 10     0  5.01 I1              3365   163       3365. 3365.
#> # ℹ 870 more rows
#> 
#> $d2$`color:depth_pct`
#> # A tibble: 770 × 7
#>      .it color depth_pct .y_composite    .n .y_distinct    .y
#>    <dbl> <fct>     <dbl>        <dbl> <dbl>       <dbl> <dbl>
#>  1     0 D            43         3365     0        3365  3365
#>  2     0 E            43         3365     0        3365  3365
#>  3     0 F            43         3365     0        3365  3365
#>  4     0 G            43         3365     1        3365  3365
#>  5     0 H            43         3365     0        3365  3365
#>  6     0 I            43         3365     0        3365  3365
#>  7     0 J            43         3365     1        3365  3365
#>  8     0 D            60         3365   627        3365  3365
#>  9     0 E            60         3365   940        3365  3365
#> 10     0 F            60         3365   871        3365  3365
#> # ℹ 760 more rows
…
#>  6 cut     Very…   NA    NA         NA     9714 24.4  3702.     NA    NA  NA    
#>  7 cut     Prem…   NA    NA         NA     9657 24.3  3748.     NA    NA  NA    
#>  8 cut     Ideal   NA    NA         NA    14703 37.0  3807.     NA    NA  NA    
#>  9 clarity I1      NA    NA         NA      704  1.77 3034.     NA    NA  NA    
#> 10 clarity SI2     NA    NA         NA     7916 19.9  6392.     NA    NA  NA    
#> 11 clarity SI1     NA    NA         NA     9857 24.8  7610.     NA    NA  NA    
#> 12 clarity VS2     NA    NA         NA     8227 20.7  7975.     NA    NA  NA    
#> 13 clarity VS1     NA    NA         NA     6007 15.1  7695.     NA    NA  NA    
#> 14 clarity VVS2    NA    NA         NA     3463  8.71 7144.     NA    NA  NA    
#> 15 clarity VVS1    NA    NA         NA     2413  6.07 6101.     NA    NA  NA    
#> 16 clarity IF      NA    NA         NA     1152  2.90 5045.     NA    NA  NA    
#> # ℹ 1 more variable: aler_band <ord>
#> 
#> $d2
#> # A tibble: 45 × 8
#>    term1 x1          term2   x2    aler_band     n   pct     y
#>    <chr> <chr>       <chr>   <chr> <ord>     <int> <dbl> <dbl>
#>  1 carat [0.2,0.6]   clarity I1    overlap      52 0.131  3365
#>  2 carat (0.6,1.03]  clarity I1    overlap     245 0.617  3365
#>  3 carat (1.03,5.01] clarity I1    overlap     407 1.02   3365
#>  4 carat [0.2,0.6]   clarity SI2   overlap    1180 2.97   3365
#>  5 carat (0.6,1.03]  clarity SI2   overlap    3036 7.64   3365
#>  6 carat (1.03,5.01] clarity SI2   overlap    3700 9.31   3365
#>  7 carat [0.2,0.6]   clarity SI1   overlap    2665 6.71   3365
#>  8 carat (0.6,1.03]  clarity SI1   overlap    3921 9.87   3365
#>  9 carat (1.03,5.01] clarity SI1   overlap    3271 8.23   3365
#> 10 carat [0.2,0.6]   clarity VS2   overlap    2693 6.78   3365
#> # ℹ 35 more rows
…
